<?xml version="1.0" encoding="UTF-8" standalone="no"?>
<!-- Created with Inkscape (http://www.inkscape.org/) -->

<svg
   xmlns:dc="http://purl.org/dc/elements/1.1/"
   xmlns:cc="http://creativecommons.org/ns#"
   xmlns:rdf="http://www.w3.org/1999/02/22-rdf-syntax-ns#"
   xmlns:svg="http://www.w3.org/2000/svg"
   xmlns="http://www.w3.org/2000/svg"
   xmlns:xlink="http://www.w3.org/1999/xlink"
   xmlns:sodipodi="http://sodipodi.sourceforge.net/DTD/sodipodi-0.dtd"
   xmlns:inkscape="http://www.inkscape.org/namespaces/inkscape"
   width="66px"
   height="28px"
   id="svg2985"
   version="1.1"
   inkscape:version="0.48.4 r9939"
   sodipodi:docname="switchoff.svg">
  <defs
     id="defs2987">
    <linearGradient
       id="linearGradient3881">
      <stop
         style="stop-color:#cdcdcd;stop-opacity:1;"
         offset="0"
         id="stop3883" />
      <stop
         style="stop-color:#000000;stop-opacity:0;"
         offset="1"
         id="stop3885" />
    </linearGradient>
    <linearGradient
       inkscape:collect="always"
       id="linearGradient3825">
      <stop
         style="stop-color:#333333;stop-opacity:1;"
         offset="0"
         id="stop3828" />
      <stop
         style="stop-color:#333333;stop-opacity:0;"
         offset="1"
         id="stop3830" />
    </linearGradient>
    <linearGradient
       id="linearGradient3922">
      <stop
         style="stop-color:#ffd42a;stop-opacity:1;"
         offset="0"
         id="stop3924" />
      <stop
         style="stop-color:#e6192c;stop-opacity:0;"
         offset="1"
         id="stop3926" />
    </linearGradient>
    <linearGradient
       id="linearGradient3914">
      <stop
         style="stop-color:#cccccc;stop-opacity:1;"
         offset="0"
         id="stop3916" />
      <stop
         style="stop-color:#cccccc;stop-opacity:0;"
         offset="1"
         id="stop3918" />
    </linearGradient>
    <linearGradient
       inkscape:collect="always"
       id="linearGradient3867">
      <stop
         style="stop-color:#ffd42a;stop-opacity:1;"
         offset="0"
         id="stop3869" />
      <stop
         style="stop-color:#ffd42a;stop-opacity:0;"
         offset="1"
         id="stop3871" />
    </linearGradient>
    <linearGradient
       inkscape:collect="always"
       id="linearGradient3859">
      <stop
         style="stop-color:#ffd42a;stop-opacity:1;"
         offset="0"
         id="stop3861" />
      <stop
         style="stop-color:#ffd42a;stop-opacity:0;"
         offset="1"
         id="stop3863" />
    </linearGradient>
    <linearGradient
       inkscape:collect="always"
       id="linearGradient3823">
      <stop
         style="stop-color:#666666;stop-opacity:1;"
         offset="0"
         id="stop3825" />
      <stop
         style="stop-color:#666666;stop-opacity:0;"
         offset="1"
         id="stop3827" />
    </linearGradient>
    <linearGradient
       inkscape:collect="always"
       id="linearGradient3813">
      <stop
         style="stop-color:#666666;stop-opacity:1;"
         offset="0"
         id="stop3815" />
      <stop
         style="stop-color:#666666;stop-opacity:0;"
         offset="1"
         id="stop3817" />
    </linearGradient>
    <linearGradient
       inkscape:collect="always"
       xlink:href="#linearGradient3813"
       id="linearGradient3819"
       x1="2"
       y1="62"
       x2="20"
       y2="54"
       gradientUnits="userSpaceOnUse" />
    <linearGradient
       inkscape:collect="always"
       xlink:href="#linearGradient3823"
       id="linearGradient3829"
       x1="62"
       y1="62"
       x2="45"
       y2="54"
       gradientUnits="userSpaceOnUse" />
    <linearGradient
       inkscape:collect="always"
       xlink:href="#linearGradient3823-6"
       id="linearGradient3829-1"
       x1="62"
       y1="62"
       x2="45"
       y2="49"
       gradientUnits="userSpaceOnUse" />
    <linearGradient
       inkscape:collect="always"
       id="linearGradient3823-6">
      <stop
         style="stop-color:#666666;stop-opacity:1;"
         offset="0"
         id="stop3825-8" />
      <stop
         style="stop-color:#666666;stop-opacity:0;"
         offset="1"
         id="stop3827-8" />
    </linearGradient>
    <linearGradient
       inkscape:collect="always"
       xlink:href="#linearGradient3813-7"
       id="linearGradient3819-2"
       x1="2"
       y1="62"
       x2="30"
       y2="39"
       gradientUnits="userSpaceOnUse" />
    <linearGradient
       inkscape:collect="always"
       id="linearGradient3813-7">
      <stop
         style="stop-color:#666666;stop-opacity:1;"
         offset="0"
         id="stop3815-7" />
      <stop
         style="stop-color:#666666;stop-opacity:0;"
         offset="1"
         id="stop3817-1" />
    </linearGradient>
    <linearGradient
       y2="49"
       x2="20"
       y1="62"
       x1="2"
       gradientUnits="userSpaceOnUse"
       id="linearGradient3851"
       xlink:href="#linearGradient3813-7"
       inkscape:collect="always" />
    <linearGradient
       inkscape:collect="always"
       xlink:href="#linearGradient3823-6"
       id="linearGradient3880"
       gradientUnits="userSpaceOnUse"
       x1="62"
       y1="62"
       x2="50"
       y2="54" />
    <linearGradient
       inkscape:collect="always"
       xlink:href="#linearGradient3813-5"
       id="linearGradient3819-1"
       x1="2"
       y1="62"
       x2="20"
       y2="54"
       gradientUnits="userSpaceOnUse" />
    <linearGradient
       inkscape:collect="always"
       id="linearGradient3813-5">
      <stop
         style="stop-color:#666666;stop-opacity:1;"
         offset="0"
         id="stop3815-2" />
      <stop
         style="stop-color:#666666;stop-opacity:0;"
         offset="1"
         id="stop3817-7" />
    </linearGradient>
    <linearGradient
       gradientTransform="translate(-0.57187294,-39.537794)"
       y2="54"
       x2="20"
       y1="62"
       x1="2"
       gradientUnits="userSpaceOnUse"
       id="linearGradient3801"
       xlink:href="#linearGradient3813-5"
       inkscape:collect="always" />
    <linearGradient
       inkscape:collect="always"
       xlink:href="#linearGradient3859"
       id="linearGradient3865"
       x1="30"
       y1="39"
       x2="20"
       y2="49"
       gradientUnits="userSpaceOnUse" />
    <linearGradient
       inkscape:collect="always"
       xlink:href="#linearGradient3867"
       id="linearGradient3873"
       x1="34"
       y1="39"
       x2="45"
       y2="49"
       gradientUnits="userSpaceOnUse" />
    <linearGradient
       inkscape:collect="always"
       xlink:href="#linearGradient3867"
       id="linearGradient3887"
       gradientUnits="userSpaceOnUse"
       x1="34"
       y1="39"
       x2="50"
       y2="54" />
    <linearGradient
       inkscape:collect="always"
       xlink:href="#linearGradient3859"
       id="linearGradient3889"
       gradientUnits="userSpaceOnUse"
       x1="30"
       y1="39"
       x2="15"
       y2="54" />
    <linearGradient
       inkscape:collect="always"
       xlink:href="#linearGradient3914"
       id="linearGradient3920"
       x1="47"
       y1="9"
       x2="47"
       y2="16"
       gradientUnits="userSpaceOnUse" />
    <linearGradient
       inkscape:collect="always"
       xlink:href="#linearGradient3922"
       id="linearGradient3928"
       x1="47"
       y1="9"
       x2="47"
       y2="16"
       gradientUnits="userSpaceOnUse" />
    <radialGradient
       inkscape:collect="always"
       xlink:href="#linearGradient3825"
       id="radialGradient3832"
       cx="40.5"
       cy="14.5"
       fx="40.5"
       fy="14.5"
       r="14.5"
       gradientTransform="matrix(-1.1341629,-0.37805444,0.03448277,-0.10344826,85.933599,31.311205)"
       gradientUnits="userSpaceOnUse" />
    <linearGradient
       inkscape:collect="always"
       xlink:href="#linearGradient3922"
       id="linearGradient3996"
       gradientUnits="userSpaceOnUse"
       x1="47"
       y1="9"
       x2="47"
       y2="16"
       gradientTransform="translate(0,-64)" />
    <linearGradient
       inkscape:collect="always"
       xlink:href="#linearGradient3914"
       id="linearGradient3998"
       gradientUnits="userSpaceOnUse"
       x1="47"
       y1="9"
       x2="47"
       y2="16"
       gradientTransform="translate(0,-64)" />
    <linearGradient
       inkscape:collect="always"
       xlink:href="#linearGradient3813"
       id="linearGradient4000"
       gradientUnits="userSpaceOnUse"
       x1="2"
       y1="62"
       x2="20"
       y2="54" />
    <linearGradient
       inkscape:collect="always"
       xlink:href="#linearGradient3823"
       id="linearGradient4002"
       gradientUnits="userSpaceOnUse"
       x1="62"
       y1="62"
       x2="45"
       y2="54" />
    <linearGradient
       inkscape:collect="always"
       xlink:href="#linearGradient3859"
       id="linearGradient4004"
       gradientUnits="userSpaceOnUse"
       x1="30"
       y1="39"
       x2="15"
       y2="54" />
    <linearGradient
       inkscape:collect="always"
       xlink:href="#linearGradient3867"
       id="linearGradient4006"
       gradientUnits="userSpaceOnUse"
       x1="34"
       y1="39"
       x2="50"
       y2="54" />
  </defs>
  <sodipodi:namedview
     id="base"
     pagecolor="#ffffff"
     bordercolor="#666666"
     borderopacity="1.0"
     inkscape:pageopacity="0.0"
     inkscape:pageshadow="2"
     inkscape:zoom="11"
     inkscape:cx="-15.922955"
     inkscape:cy="17.933767"
     inkscape:current-layer="layer1"
     showgrid="true"
     inkscape:document-units="px"
     inkscape:grid-bbox="true"
     inkscape:window-width="1920"
     inkscape:window-height="1027"
     inkscape:window-x="-8"
     inkscape:window-y="-8"
     inkscape:window-maximized="1">
    <inkscape:grid
       type="xygrid"
       id="grid2993" />
  </sodipodi:namedview>
  <metadata
     id="metadata2990">
    <rdf:RDF>
      <cc:Work
         rdf:about="">
        <dc:format>image/svg+xml</dc:format>
        <dc:type
           rdf:resource="http://purl.org/dc/dcmitype/StillImage" />
        <dc:title />
      </cc:Work>
    </rdf:RDF>
  </metadata>
  <g
     id="layer1"
     inkscape:label="Layer 1"
     inkscape:groupmode="layer">
    <path
       style="fill:#53536f;fill-opacity:0.94117647;stroke:none"
       d="m 8.4191098,0.09375 c -0.780534,-7.7539e-4 -1.576673,0.0702178 -2.09375,0.21875 -0.99712,0.28642594 -1.684439,0.67194745 -2.34375,1.28125 -0.665747,0.6152505 -1.0926019,1.2604629 -1.4062499,2.09375 -0.532575,1.4149115 -0.52357,1.1296968 -0.5625,9.65625 -0.043339,9.491166 -0.020445,9.815856 0.78125,11.5 0.7633249,1.60354 2.1792579,2.636975 4.0937499,3 0.864662,0.163953 2.61862,0.114441 3.4687502,-0.09375 2.543734,-0.622943 4.078525,-2.60694 4.375,-5.65625 0.11688,-1.202376 0.117058,-15.1018336 0,-16.21875 C 14.536902,4.0171642 13.976999,2.7648512 12.95036,1.75 12.215627,1.023704 11.528755,0.61301463 10.48161,0.3125 9.9604548,0.16293635 9.1996438,0.09452539 8.4191098,0.09375 z m 9.2187502,0.25 0,13.6875 0,13.65625 2.03125,0 2.0625,0 0,-5.65625 0,-5.6875 2.71875,0 2.71875,0 0,-1.90625 0,-1.90625 -2.71875,0 -2.71875,0 0,-4.1875 0,-4.1875 3.5,0 3.5,0 0,-1.90625 0,-1.90625 -5.5625,0 -5.53125,0 z m 13.1875,0 0,13.6875 0,13.65625 2.09375,0 2.09375,0 0,-5.65625 0,-5.6875 2.71875,0 2.71875,0 0,-1.90625 0,-1.90625 -2.71875,0 -2.71875,0 0,-4.1875 0,-4.1875 3.4375,0 3.46875,0 0,-1.90625 0,-1.90625 -5.5625,0 -5.53125,0 z M 8.1066098,3.90625 c 0.16563,-0.012094 0.33576,-0.013837 0.53125,0 0.690133,0.048847 1.09006,0.2476414 1.4687502,0.71875 0.538641,0.6700462 0.53125,0.6257895 0.53125,9.40625 0,8.77006 0.0019,8.743941 -0.53125,9.40625 -0.1380332,0.171481 -0.4049492,0.37077 -0.5937502,0.46875 -0.40148,0.208349 -1.407757,0.297085 -1.90625,0.15625 -0.49075,-0.138649 -1.025273,-0.654809 -1.21875,-1.15625 -0.156742,-0.406305 -0.15625,-0.902185 -0.15625,-8.875 0,-9.5084067 -0.032237,-8.9747606 0.6875,-9.625 0.33007,-0.298198 0.690609,-0.4637191 1.1875,-0.5 z"
       id="path3057"
       inkscape:connector-curvature="0" />
  </g>
</svg>
