<?xml version="1.0" encoding="UTF-8" standalone="no"?>
<!-- Created with Inkscape (http://www.inkscape.org/) -->

<svg
   xmlns:dc="http://purl.org/dc/elements/1.1/"
   xmlns:cc="http://creativecommons.org/ns#"
   xmlns:rdf="http://www.w3.org/1999/02/22-rdf-syntax-ns#"
   xmlns:svg="http://www.w3.org/2000/svg"
   xmlns="http://www.w3.org/2000/svg"
   xmlns:xlink="http://www.w3.org/1999/xlink"
   xmlns:sodipodi="http://sodipodi.sourceforge.net/DTD/sodipodi-0.dtd"
   xmlns:inkscape="http://www.inkscape.org/namespaces/inkscape"
   width="720px"
   height="415px"
   viewBox="0 0 744.09448819 1052.3622047"
   id="svg4718"
   version="1.1"
   inkscape:version="0.92.3 (2405546, 2018-03-11)"
   sodipodi:docname="branding_color.svg">
  <defs
     id="defs4720">
    <linearGradient
       inkscape:collect="always"
       id="linearGradient4838">
      <stop
         style="stop-color:#4d4d4d;stop-opacity:1;"
         offset="0"
         id="stop4834" />
      <stop
         style="stop-color:#4d4d4d;stop-opacity:0;"
         offset="1"
         id="stop4836" />
    </linearGradient>
    <linearGradient
       inkscape:collect="always"
       id="linearGradient4830">
      <stop
         style="stop-color:#4d4d4d;stop-opacity:1;"
         offset="0"
         id="stop4826" />
      <stop
         style="stop-color:#4d4d4d;stop-opacity:0;"
         offset="1"
         id="stop4828" />
    </linearGradient>
    <linearGradient
       inkscape:collect="always"
       id="linearGradient4656">
      <stop
         style="stop-color:#ffdd55;stop-opacity:1;"
         offset="0"
         id="stop4652" />
      <stop
         style="stop-color:#ffdd55;stop-opacity:0;"
         offset="1"
         id="stop4654" />
    </linearGradient>
    <linearGradient
       inkscape:collect="always"
       id="linearGradient4644">
      <stop
         style="stop-color:#ff80b2;stop-opacity:1;"
         offset="0"
         id="stop4640" />
      <stop
         style="stop-color:#ff80b2;stop-opacity:0;"
         offset="1"
         id="stop4642" />
    </linearGradient>
    <linearGradient
       inkscape:collect="always"
       xlink:href="#linearGradient4644"
       id="linearGradient4646"
       x1="-1898.3466"
       y1="141.59024"
       x2="-1552.4058"
       y2="-1823.7719"
       gradientUnits="userSpaceOnUse" />
    <linearGradient
       inkscape:collect="always"
       xlink:href="#linearGradient4656"
       id="linearGradient4658"
       x1="1360.9202"
       y1="435.62576"
       x2="1366.8035"
       y2="-1462.739"
       gradientUnits="userSpaceOnUse" />
    <linearGradient
       inkscape:collect="always"
       xlink:href="#linearGradient4644"
       id="linearGradient4704"
       gradientUnits="userSpaceOnUse"
       x1="-1898.3466"
       y1="141.59024"
       x2="-1771.6199"
       y2="-769.10199" />
    <linearGradient
       inkscape:collect="always"
       xlink:href="#linearGradient4656"
       id="linearGradient4767"
       gradientUnits="userSpaceOnUse"
       x1="1360.9202"
       y1="435.62576"
       x2="1366.8035"
       y2="-1462.739" />
    <linearGradient
       inkscape:collect="always"
       xlink:href="#linearGradient4830"
       id="linearGradient4832"
       x1="-1508.5775"
       y1="306.00888"
       x2="-1500.9363"
       y2="-520.17236"
       gradientUnits="userSpaceOnUse" />
    <linearGradient
       inkscape:collect="always"
       xlink:href="#linearGradient4838"
       id="linearGradient4840"
       x1="-1580.4762"
       y1="-1321.4824"
       x2="-1583.2877"
       y2="-615.51733"
       gradientUnits="userSpaceOnUse" />
  </defs>
  <sodipodi:namedview
     id="base"
     pagecolor="#ffffff"
     bordercolor="#666666"
     borderopacity="1.0"
     inkscape:pageopacity="0.0"
     inkscape:pageshadow="2"
     inkscape:zoom="0.7"
     inkscape:cx="-60.854075"
     inkscape:cy="386.08656"
     inkscape:document-units="px"
     inkscape:current-layer="g4717"
     showgrid="false"
     inkscape:window-width="1920"
     inkscape:window-height="1017"
     inkscape:window-x="-8"
     inkscape:window-y="-8"
     inkscape:window-maximized="1" />
  <metadata
     id="metadata4723">
    <rdf:RDF>
      <cc:Work
         rdf:about="">
        <dc:format>image/svg+xml</dc:format>
        <dc:type
           rdf:resource="http://purl.org/dc/dcmitype/StillImage" />
        <dc:title></dc:title>
      </cc:Work>
    </rdf:RDF>
  </metadata>
  <g
     inkscape:label="Layer 1"
     inkscape:groupmode="layer"
     id="layer1">
    <g
       id="g4796">
      <g
         transform="matrix(1.0269276,0,0,0.95161139,111.65019,74.700817)"
         id="g4717">
        <g
           id="g46"
           transform="matrix(0.43092739,0,0,0.43092739,1251.1171,615.56425)"
           style="fill:#c6afe9">
          <path
             style="fill:#c6afe9;stroke-width:2.53581262"
             d="m -1410.2667,-242.11529 c -114.8705,-13.19908 -195.0748,-65.33024 -240.743,-156.47805 -10.8113,-21.57791 -25.5173,-66.13551 -25.5173,-77.3147 0,-4.97118 -0.8746,-9.57903 -1.9435,-10.23966 -1.069,-0.66065 -21.8943,11.07813 -46.2786,26.08621 -165.6624,101.96219 -326.8705,173.80186 -448.461,199.84912 -28.8754,6.18571 -37.1592,6.86513 -84.0179,6.891 -58.2079,0.0322 -77.0338,-3.15993 -118.6131,-20.11164 -36.9117,-15.04875 -77.6695,-44.53031 -92.5979,-66.97928 l -4.0214,-6.04733 -14.7368,13.21613 c -17.9496,16.09746 -51.3299,38.68328 -68.2006,46.14598 -31.8992,14.11055 -48.9077,15.11971 -99.15,5.88283 -209.2524,-38.47036 -358.7049,-130.77817 -469.932,-290.24879 l -13.265,-19.01859 1.3924,148.65796 c 1.5303,163.36707 1.858,159.44328 -13.3149,159.44328 -14.0444,0 -14.0365,0.056 -15.0124,-106.70987 l -0.8987,-98.32423 -12.201,18.20128 c -19.1989,28.64048 -51.2397,65.68543 -92.5057,106.95315 -60.1944,60.19684 -103.1523,91.73385 -133.6755,98.13615 -21.2729,4.46204 -33.811,-1.10044 -57.7784,-25.63306 -39.6705,-40.60615 -77.2268,-119.85361 -98.9446,-208.78327 -23.218,-95.07287 -32.1449,-203.31555 -29.4546,-357.15067 1.73,-98.91874 4.6387,-137.71009 11.4871,-153.19186 7.2005,-16.2776 19.2814,-24.7557 51.6378,-36.2382 84.4547,-29.9711 147.7377,-41.5212 165.1234,-30.1376 14.0635,9.2084 14.3833,12.281 12.635,121.40325 -1.878,117.22378 1.8416,194.23278 13.3786,276.98228 2.3396,16.78092 3.7109,12.60943 14.7586,-44.89405 17.8565,-92.94443 26.6441,-160.21797 26.74,-204.70972 0.043,-19.8615 1.093,-26.326 5.9831,-36.82709 19.6139,-42.11977 114.8081,-91.08257 194.701,-100.14377 32.7154,-3.7105 49.6028,1.2476 65.3545,19.1878 9.8233,11.1882 12.9527,17.8187 34.6454,73.40634 52.6667,134.95869 122.2588,243.95144 215.3562,337.28314 60.3025,60.45431 114.1274,92.38032 156.6018,92.88766 17.4102,0.20793 23.5109,-2.98415 27.2278,-14.24668 8.022,-24.30678 -18.1449,-78.37157 -70.4225,-145.50361 -52.3466,-67.22074 -125.8134,-145.39328 -197.0889,-209.71308 -70.9854,-64.058 -77.3423,-71.81381 -77.3423,-94.36297 0,-21.0172 25.1322,-47.3504 80.7371,-84.5955 60.0772,-40.2407 92.2807,-53.2513 118.3903,-47.831 42.1559,8.7516 163.4784,114.5968 238.855,208.38396 10.8525,13.50318 20.407,24.62906 21.2322,24.72418 0.8253,0.0951 2.8088,-4.19386 4.4079,-9.53103 21.0987,-70.42123 174.3247,-164.37761 325.0152,-199.29551 47.9523,-11.1114 130.992,-17.5615 180.0427,-13.9847 52.5696,3.8334 105.4661,18.7763 162.2783,45.8427 72.6952,34.6332 103.5945,59.2696 102.07,81.3817 -0.2836,4.11411 0.3133,4.14015 9.0455,0.39448 65.6558,-28.16298 165.1303,-62.67408 228.6971,-79.34288 87.6787,-22.9915 151.0941,-32.9779 222.3678,-35.0177 68.4263,-1.9583 91.5119,2.5607 140.4889,27.5004 61.9165,31.5288 83.1927,73.3352 61.1007,120.05909 -11.8299,25.01967 -49.1257,61.45918 -91.766,89.65916 l -31.6977,20.96308 20.2865,-1.94268 c 11.1576,-1.06847 53.3789,-1.98625 93.8251,-2.03956 66.4,-0.0875 76.25924,0.45511 101.56589,5.58949 51.80411,10.51039 90.70627,27.51395 124.63518,54.47605 35.34441,28.08684 60.06909,69.01717 69.63012,115.26856 6.79699,32.88079 5.50094,86.00665 -2.80385,114.91956 -32.31538,112.50485 -153.83887,213.17681 -337.81224,279.84903 -63.3877,22.97178 -141.9887,41.63257 -198.4596,47.11657 -31.8916,3.09706 -85.3811,3.02457 -113.0372,-0.15316 z m 211.3285,-176.12598 c 50.3811,-12.96691 111.6679,-56.42417 140.5321,-99.64874 19.8711,-29.75718 28.277,-63.84056 23.4907,-95.24609 -6.6111,-43.37647 -30.2993,-66.97664 -80.8062,-80.50573 -33.5589,-8.98928 -113.0627,-6.59543 -176.8732,5.32566 -6.2711,1.17157 -11.938,2.6661 -12.5931,3.32118 -0.655,0.65507 3.3341,19.3357 8.8648,41.51247 17.578,70.48372 27.5941,129.42884 33.5181,197.25473 l 3.0757,35.21434 22.5821,-1.60293 c 12.4202,-0.8816 29.6142,-3.4128 38.209,-5.62489 z m -906.1411,-18.90514 c 53.7711,-5.64477 119.8085,-31.43815 185.9613,-72.6342 20.6487,-12.85875 143.3889,-97.56448 146.0916,-100.82099 1.8755,-2.25987 2.5355,-27.96003 2.0775,-80.90615 l -0.671,-77.59424 -41.8409,18.51022 c -107.6643,47.63009 -169.6388,86.09568 -256.1171,158.96355 -84.4367,71.14762 -116.6474,106.26272 -116.6474,127.16535 0,16.03516 11.3443,23.93472 39.3051,27.37004 8.3682,1.02812 15.7855,2.00567 16.4828,2.17235 0.6973,0.1666 12.1085,-0.83502 25.3581,-2.22593 z m 390.5473,-211.92733 c 41.2746,-27.04347 76.759,-43.7398 106.6408,-50.17724 3.5796,-0.77114 7.95,-4.09576 9.7119,-7.38804 2.8782,-5.37777 1.0936,-10.85944 -17.5647,-53.95443 -11.4226,-26.38267 -22.0379,-51.11696 -23.5896,-54.96508 -1.5517,-3.84812 -3.5123,-6.70091 -4.3569,-6.33954 -0.8445,0.36138 -23.4127,9.64991 -50.1515,20.64119 l -48.6161,19.98413 v 74.47489 c 0,40.96119 0.5311,74.47489 1.1803,74.47489 0.6491,0 12.6848,-7.53785 26.7458,-16.75077 z m -581.6479,-9.32725 c 19.3315,-12.94821 46.5593,-30.92078 60.5063,-39.93905 l 25.3581,-16.39684 -54.52,-1.54071 c -45.1915,-1.27708 -58.2079,-2.52153 -76.0743,-7.27319 -11.855,-3.1529 -23.7244,-6.87152 -26.3766,-8.26361 -3.7449,-1.96563 -4.4819,-1.75704 -3.2989,0.93369 8.7111,19.81322 29.8109,72.25704 33.2764,82.7089 2.4277,7.32216 4.7666,13.31302 5.1975,13.31302 0.4309,0 16.6001,-10.59399 35.9315,-23.54221 z m 932.7809,-210.0018 c 46.318,-44.46722 49.4622,-68.3049 8.9899,-68.15735 -15.803,0.0576 -56.6271,7.47133 -60.0633,10.90763 -2.0081,2.00806 24.9873,77.73589 27.7215,77.76477 1.0787,0.0101 11.5871,-9.22039 23.3519,-20.51505 z m -687.5149,-7.46934 c 10.467,-1.45583 52.4856,-11.00639 93.3746,-21.22346 40.889,-10.21706 96.2196,-22.90018 122.957,-28.18474 l 48.6134,-9.60828 9.5461,-11.42011 9.546,-11.4201 -7.4432,1.58569 c -4.0938,0.87213 -15.431,3.28804 -25.1939,5.36869 -29.8573,6.36316 -65.017,9.6981 -83.6818,7.93732 -24.478,-2.30919 -60.3419,-11.61128 -96.4072,-25.00526 -60.8638,-22.60368 -79.6827,-27.73794 -95.7208,-26.11494 -39.6228,4.00968 -108.1461,41.02308 -128.8034,69.57421 -17.1332,23.68028 -9.9414,38.21802 23.3344,47.16944 16.5496,4.45195 101.2273,5.3266 129.8788,1.34154 z"
             id="path48"
             inkscape:connector-curvature="0"
             sodipodi:nodetypes="csscsscsccccsccsssccsscsscccsscccscssccsssscscccsccsssccccsssccssscccccsscsscccsccccsssccscccsscscssccccsssccsccscccsssccccsssscss" />
        </g>
        <g
           transform="matrix(0.43092739,0,0,0.43092739,-245.0123,1057.5202)"
           id="g54"
           style="fill:#ff80b2">
          <path
             inkscape:connector-curvature="0"
             id="path52"
             d="m 1939.5597,-90.962522 c -17.539,-8.002441 -26.7473,-20.975278 -33.2732,-46.876978 -5.7832,-22.9524 -4.4285,-122.87603 2.4062,-177.50689 7.6242,-60.94222 21.0354,-144.55993 37.2141,-232.02686 25.2316,-136.41084 26.8538,-149.83125 19.7692,-163.55991 -5.8608,-11.35758 -18.6359,-17.74171 -35.5128,-17.74676 -26.6879,-0.008 -93.6526,25.85449 -209.293,80.83118 l -32.289,15.35065 11.6117,24.81173 c 31.8716,68.10125 51.6986,125.41029 51.6986,149.43169 0,28.48567 -8.4774,37.36373 -63.409,66.4056 -79.3324,41.94224 -130.8416,62.87289 -160.9713,65.41005 -12.4207,1.04592 -16.7617,0.33224 -23.3723,-3.84254 -11.5857,-7.31686 -15.1665,-15.85241 -28.8033,-68.6569 -12.4146,-48.07064 -27.2727,-99.39828 -34.3438,-118.63899 -2.7762,-7.55454 -5.4142,-10.7772 -8.8223,-10.7772 -4.7309,0 -4.862,3.62048 -4.862,134.21694 0,118.63431 -0.4625,134.67959 -3.9847,138.20179 -5.3889,5.38875 -11.736,5.01145 -22.4962,-1.33727 l -9.0204,-5.32208 v -141.43622 c 0,-121.17561 -0.5622,-143.02572 -3.924,-152.53223 -6.4604,-18.26903 -7.4413,-46.26739 -2.4939,-71.19709 4.3301,-21.82098 4.3169,-22.24851 -1.202,-38.83313 -3.0693,-9.22308 -5.9361,-16.41107 -6.3707,-15.97332 -0.4347,0.43776 -5.0017,13.91877 -10.1491,29.95779 -27.3363,85.18053 -80.1063,185.82775 -130.2951,248.50964 -20.1709,25.19162 -62.6447,67.29474 -84.593,83.85443 -68.3168,51.54422 -143.4062,75.87189 -236.43708,76.60135 -75.14906,0.58924 -152.95463,-22.27423 -214.65044,-63.07583 -28.49569,-18.84522 -71.48228,-63.13966 -92.95655,-95.78475 -18.91158,-28.74954 -39.00333,-67.81993 -48.65159,-94.60754 l -5.64396,-15.67006 -29.12482,26.35628 c -107.81996,97.57082 -251.26301,182.50284 -361.55539,214.07553 -167.0720024,47.82657 -295.78173,-2.13221 -397.888,-154.44045 -72.28105,-107.81889 -96.89491,-246.59522 -62.54023,-352.60923 39.64261,-122.33189 181.5203,-230.8835 331.194354,-253.3994 10.118145,-1.5221 30.372948,-3.5002 45.010672,-4.3958 24.571514,-1.5035 26.613864,-2.0257 26.613864,-6.8051 0,-9.3304 25.52016,-30.8644 51.15519,-43.1648 27.65253,-13.2685 83.74039,-32.4398 111.66375,-38.1677 25.208,-5.1708 58.12285,-5.1453 75.64658,0.059 28.1356,8.3554 57.06922,48.6565 107.22277,149.34863 38.25578,76.80497 47.58833,104.64411 42.49084,126.74988 -1.61303,6.9959 -5.8557,16.94011 -9.4279,22.09823 -19.30514,27.87508 -132.76905,103.48682 -170.32748,113.50501 -22.36713,5.96613 -46.05771,-6.60458 -93.04429,-49.37103 -86.81759,-79.02013 -129.791755,-102.53741 -195.257559,-106.85304 -27.9740689,-1.84409 -41.273138,1.38808 -54.360466,13.21177 -16.096323,14.54192 -20.684622,29.14439 -23.424568,74.54913 -5.623671,93.18765 11.624418,158.71718 61.3395294,233.04195 59.1554336,88.43837 144.1860436,123.76786 222.6719736,92.51821 48.09752,-19.15033 74.38806,-42.24015 150.53268,-132.20606 73.76907,-87.15928 90.19834,-104.65616 116.42372,-123.98943 l 20.00147,-14.74499 0.0254,-55.85439 c 0,-30.71992 1.19209,-65.52395 2.62989,-77.34228 11.23111,-92.31147 51.53456,-150.47259 113.34904,-163.57129 34.38207,-7.2857 58.82375,-3.4508 74.78619,11.734 l 10.41204,9.9048 28.11177,-27.3811 c 80.23158,-78.1561 158.19387,-123.7406 242.37803,-141.7241 29.12197,-6.2211 95.72507,-6.1511 127.73897,0.1342 65.3324,12.8269 122.0664,41.2695 168.9021,84.6765 l 18.9697,17.581 44.4256,-21.8751 c 116.6413,-57.4338 207.5421,-81.6685 292.8017,-78.0628 53.6464,2.2688 99.4193,13.6854 144.6749,36.0847 42.4594,21.0152 65.2488,44.5798 73.5388,76.0402 14.1473,53.6885 -26.8433,138.63068 -107.5009,222.76826 l -14.2183,14.83162 15.2149,-7.54661 c 24.5086,-12.1563 83.8633,-35.07044 115.3794,-44.54274 82.3285,-24.74413 172.2679,-36.98485 247.4771,-33.68165 l 35.7367,1.56957 2.9045,-9.69485 c 21.0959,-70.41187 174.3318,-164.3708 325.0125,-199.2864 47.9523,-11.1114 130.992,-17.5615 180.0427,-13.9847 52.5697,3.8334 105.466,18.7763 162.2783,45.8427 60.8121,28.9719 96.2828,54.2401 101.2216,72.1071 3.048,11.02735 -2.261,21.98328 -15.1921,31.35047 -25.9518,18.79949 -117.9825,38.5431 -160.8222,34.50171 -24.478,-2.30919 -60.342,-11.61127 -96.4073,-25.00525 -60.8638,-22.60369 -79.6826,-27.73795 -95.7209,-26.11495 -18.398,1.86183 -53.7011,15.01752 -78.7341,29.34036 -53.5326,30.62886 -73.5442,64.12298 -47.5027,79.50611 15.4031,9.09882 35.1342,11.88568 84.1515,11.88568 58.7839,0 73.6268,-2.02411 140.5669,-19.16887 104.2523,-26.70129 190.0883,-43.84207 247.4012,-49.40417 35.5128,-3.44645 56.0686,0.11634 86.8067,15.0456 55.2802,26.84902 65.569,59.56295 27.4667,87.33101 -16.5328,12.04856 -28.9882,17.96142 -94.3249,44.7785 -191.2713,78.50605 -254.8844,114.37088 -360.0854,203.01488 -84.4367,71.14762 -116.6473,106.26272 -116.6473,127.16535 0,16.56078 11.2473,23.9403 41.8409,27.45212 61.7176,7.08453 148.7457,-22.81392 239.6342,-82.32614 13.2497,-8.6756 63.2361,-42.73172 111.0811,-75.68024 114.5228,-78.86626 145.9499,-96.54747 184.0617,-103.55473 19.8026,-3.64089 42.5321,1.64501 61.7391,14.35785 18.5931,12.3064 26.8345,25.63057 28.0948,45.42213 1.0874,17.07974 -3.131,28.73081 -15.8947,43.89961 l -6.4608,7.67814 v 133.33959 133.3396 l -5.9972,3.92957 c -4.5588,2.98701 -7.6,3.32019 -12.679,1.38912 -3.6752,-1.39723 -6.9398,-2.85396 -7.2547,-3.23714 -0.3152,-0.38319 -1.1711,-55.79021 -1.9019,-123.12672 l -1.329,-122.42997 -20.2865,14.8906 c -159.3221,116.94483 -370.3651,227.82793 -519.4637,272.92906 -53.6299,16.22263 -86.9003,22.01772 -134.7759,23.47556 -62.0493,1.88946 -103.2444,-6.25608 -149.4563,-29.55218 -11.0713,-5.58125 -20.695,-9.58261 -21.3857,-8.89188 -0.6908,0.69071 -1.7591,30.04984 -2.3743,65.24253 -1.0166,58.15742 -1.5999,65.01649 -6.4014,75.29084 -6.851,14.66022 -21.9487,29.61682 -35.9576,35.62172 -26.5593,11.38464 -115.8902,24.289311 -185.0831,26.736979 -31.4641,1.113044 -39.5678,0.647216 -46.8945,-2.695671 z M 1035.3026,-429.23572 c 46.5205,-20.41575 78.3685,-71.40486 100.0979,-160.25854 14.693,-60.0805 18.8956,-97.65729 19.1122,-170.88725 0.1674,-56.78016 -0.4532,-68.21805 -4.4747,-82.40792 -19.9409,-70.35826 -63.8677,-117.30312 -128.4605,-137.28613 -15.8607,-4.90685 -24.70258,-5.89286 -53.25202,-5.93852 -18.82841,-0.0301 -36.23043,0.76527 -38.67115,1.76752 -4.1567,1.70689 -4.43767,11.4412 -4.43767,153.74012 0,165.71386 0.62356,158.89311 -14.36893,157.15975 -13.45096,-1.55516 -13.44716,-1.51 -13.48773,-156.22492 l -0.0373,-142.72869 -5.54836,2.96945 c -18.85783,10.0924 -44.76115,42.25051 -74.38578,92.3473 -33.66418,56.92816 -48.20022,74.38918 -65.52945,78.71467 -7.25547,1.81103 -7.26029,1.82586 -5.5514,17.31417 4.13667,37.49156 27.10758,122.68249 46.21569,171.39621 38.65668,98.54962 91.57808,160.74991 152.97973,179.80213 23.31376,7.23394 26.323,7.61575 53.25207,6.75634 17.8529,-0.56975 27.3155,-2.1843 36.5474,-6.23569 z M 2273.479,-614.26377 c 20.3869,-15.3417 79.04,-55.18892 123.7768,-84.09075 l 25.3581,-16.38236 -54.5199,-1.53072 c -44.4516,-1.24805 -58.2266,-2.5365 -74.5917,-6.97696 -11.0394,-2.9954 -20.4569,-5.06097 -20.9278,-4.59015 -0.4709,0.47085 -4.8198,27.00334 -9.6645,58.96112 -4.8447,31.95776 -9.2476,60.67254 -9.7842,63.81061 -0.5368,3.13807 -0.6339,5.70558 -0.2155,5.70558 0.4181,0 9.6741,-6.70786 20.569,-14.90637 z m -699.9428,-269.7386 c 18.2751,-28.86853 23.8133,-66.69712 12.8936,-88.06768 -9.4231,-18.44152 -15.963,-21.60944 -44.5626,-21.58676 -13.4961,0.0106 -29.4111,1.4873 -35.3667,3.28132 l -10.8287,3.26187 13.3645,15.09999 c 16.8337,19.02004 37.3345,52.64037 47.9897,78.70122 4.5173,11.04798 8.5449,20.08724 8.9504,20.08724 0.4055,0 3.8073,-4.84974 7.5598,-10.7772 z"
             style="fill:#ff80b2;stroke-width:2.53581262"
             sodipodi:nodetypes="cccccscccscscccsscccscccccccsscccssssscsccccccsssccsssccccssccccsccsccccssscccscccsscccsssccsssscsccccccccccccsssccscsscccccccscscscccccccsccscsscscscccccccccsc" />
        </g>
        <g
           style="fill:url(#linearGradient4646);fill-opacity:1"
           transform="matrix(0.43092739,0,0,0.43092739,1251.1171,615.56425)"
           id="g4638">
          <path
             sodipodi:nodetypes="csscsscsccccsccsssccsscsscccsscccscssccsssscscccsccsssccccsssccssscccccsscsscccsccccsssccscccsscscssccccsssccsccscccsssccccsssscss"
             inkscape:connector-curvature="0"
             id="path4636"
             d="m -1410.2667,-242.11529 c -114.8705,-13.19908 -195.0748,-65.33024 -240.743,-156.47805 -10.8113,-21.57791 -25.5173,-66.13551 -25.5173,-77.3147 0,-4.97118 -0.8746,-9.57903 -1.9435,-10.23966 -1.069,-0.66065 -21.8943,11.07813 -46.2786,26.08621 -165.6624,101.96219 -326.8705,173.80186 -448.461,199.84912 -28.8754,6.18571 -37.1592,6.86513 -84.0179,6.891 -58.2079,0.0322 -77.0338,-3.15993 -118.6131,-20.11164 -36.9117,-15.04875 -77.6695,-44.53031 -92.5979,-66.97928 l -4.0214,-6.04733 -14.7368,13.21613 c -17.9496,16.09746 -51.3299,38.68328 -68.2006,46.14598 -31.8992,14.11055 -48.9077,15.11971 -99.15,5.88283 -209.2524,-38.47036 -358.7049,-130.77817 -469.932,-290.24879 l -13.265,-19.01859 1.3924,148.65796 c 1.5303,163.36707 1.858,159.44328 -13.3149,159.44328 -14.0444,0 -14.0365,0.056 -15.0124,-106.70987 l -0.8987,-98.32423 -12.201,18.20128 c -19.1989,28.64048 -51.2397,65.68543 -92.5057,106.95315 -60.1944,60.19684 -103.1523,91.73385 -133.6755,98.13615 -21.2729,4.46204 -33.811,-1.10044 -57.7784,-25.63306 -39.6705,-40.60615 -77.2268,-119.85361 -98.9446,-208.78327 -23.218,-95.07287 -32.1449,-203.31555 -29.4546,-357.15067 1.73,-98.91874 4.6387,-137.71009 11.4871,-153.19186 7.2005,-16.2776 19.2814,-24.7557 51.6378,-36.2382 84.4547,-29.9711 147.7377,-41.5212 165.1234,-30.1376 14.0635,9.2084 14.3833,12.281 12.635,121.40325 -1.878,117.22378 1.8416,194.23278 13.3786,276.98228 2.3396,16.78092 3.7109,12.60943 14.7586,-44.89405 17.8565,-92.94443 26.6441,-160.21797 26.74,-204.70972 0.043,-19.8615 1.093,-26.326 5.9831,-36.82709 19.6139,-42.11977 114.8081,-91.08257 194.701,-100.14377 32.7154,-3.7105 49.6028,1.2476 65.3545,19.1878 9.8233,11.1882 12.9527,17.8187 34.6454,73.40634 52.6667,134.95869 122.2588,243.95144 215.3562,337.28314 60.3025,60.45431 114.1274,92.38032 156.6018,92.88766 17.4102,0.20793 23.5109,-2.98415 27.2278,-14.24668 8.022,-24.30678 -18.1449,-78.37157 -70.4225,-145.50361 -52.3466,-67.22074 -125.8134,-145.39328 -197.0889,-209.71308 -70.9854,-64.058 -77.3423,-71.81381 -77.3423,-94.36297 0,-21.0172 25.1322,-47.3504 80.7371,-84.5955 60.0772,-40.2407 92.2807,-53.2513 118.3903,-47.831 42.1559,8.7516 163.4784,114.5968 238.855,208.38396 10.8525,13.50318 20.407,24.62906 21.2322,24.72418 0.8253,0.0951 2.8088,-4.19386 4.4079,-9.53103 21.0987,-70.42123 174.3247,-164.37761 325.0152,-199.29551 47.9523,-11.1114 130.992,-17.5615 180.0427,-13.9847 52.5696,3.8334 105.4661,18.7763 162.2783,45.8427 72.6952,34.6332 103.5945,59.2696 102.07,81.3817 -0.2836,4.11411 0.3133,4.14015 9.0455,0.39448 65.6558,-28.16298 165.1303,-62.67408 228.6971,-79.34288 87.6787,-22.9915 151.0941,-32.9779 222.3678,-35.0177 68.4263,-1.9583 91.5119,2.5607 140.4889,27.5004 61.9165,31.5288 83.1927,73.3352 61.1007,120.05909 -11.8299,25.01967 -49.1257,61.45918 -91.766,89.65916 l -31.6977,20.96308 20.2865,-1.94268 c 11.1576,-1.06847 53.3789,-1.98625 93.8251,-2.03956 66.4,-0.0875 76.25924,0.45511 101.56589,5.58949 51.80411,10.51039 90.70627,27.51395 124.63518,54.47605 35.34441,28.08684 60.06909,69.01717 69.63012,115.26856 6.79699,32.88079 5.50094,86.00665 -2.80385,114.91956 -32.31538,112.50485 -153.83887,213.17681 -337.81224,279.84903 -63.3877,22.97178 -141.9887,41.63257 -198.4596,47.11657 -31.8916,3.09706 -85.3811,3.02457 -113.0372,-0.15316 z m 211.3285,-176.12598 c 50.3811,-12.96691 111.6679,-56.42417 140.5321,-99.64874 19.8711,-29.75718 28.277,-63.84056 23.4907,-95.24609 -6.6111,-43.37647 -30.2993,-66.97664 -80.8062,-80.50573 -33.5589,-8.98928 -113.0627,-6.59543 -176.8732,5.32566 -6.2711,1.17157 -11.938,2.6661 -12.5931,3.32118 -0.655,0.65507 3.3341,19.3357 8.8648,41.51247 17.578,70.48372 27.5941,129.42884 33.5181,197.25473 l 3.0757,35.21434 22.5821,-1.60293 c 12.4202,-0.8816 29.6142,-3.4128 38.209,-5.62489 z m -906.1411,-18.90514 c 53.7711,-5.64477 119.8085,-31.43815 185.9613,-72.6342 20.6487,-12.85875 143.3889,-97.56448 146.0916,-100.82099 1.8755,-2.25987 2.5355,-27.96003 2.0775,-80.90615 l -0.671,-77.59424 -41.8409,18.51022 c -107.6643,47.63009 -169.6388,86.09568 -256.1171,158.96355 -84.4367,71.14762 -116.6474,106.26272 -116.6474,127.16535 0,16.03516 11.3443,23.93472 39.3051,27.37004 8.3682,1.02812 15.7855,2.00567 16.4828,2.17235 0.6973,0.1666 12.1085,-0.83502 25.3581,-2.22593 z m 390.5473,-211.92733 c 41.2746,-27.04347 76.759,-43.7398 106.6408,-50.17724 3.5796,-0.77114 7.95,-4.09576 9.7119,-7.38804 2.8782,-5.37777 1.0936,-10.85944 -17.5647,-53.95443 -11.4226,-26.38267 -22.0379,-51.11696 -23.5896,-54.96508 -1.5517,-3.84812 -3.5123,-6.70091 -4.3569,-6.33954 -0.8445,0.36138 -23.4127,9.64991 -50.1515,20.64119 l -48.6161,19.98413 v 74.47489 c 0,40.96119 0.5311,74.47489 1.1803,74.47489 0.6491,0 12.6848,-7.53785 26.7458,-16.75077 z m -581.6479,-9.32725 c 19.3315,-12.94821 46.5593,-30.92078 60.5063,-39.93905 l 25.3581,-16.39684 -54.52,-1.54071 c -45.1915,-1.27708 -58.2079,-2.52153 -76.0743,-7.27319 -11.855,-3.1529 -23.7244,-6.87152 -26.3766,-8.26361 -3.7449,-1.96563 -4.4819,-1.75704 -3.2989,0.93369 8.7111,19.81322 29.8109,72.25704 33.2764,82.7089 2.4277,7.32216 4.7666,13.31302 5.1975,13.31302 0.4309,0 16.6001,-10.59399 35.9315,-23.54221 z m 932.7809,-210.0018 c 46.318,-44.46722 49.4622,-68.3049 8.9899,-68.15735 -15.803,0.0576 -56.6271,7.47133 -60.0633,10.90763 -2.0081,2.00806 24.9873,77.73589 27.7215,77.76477 1.0787,0.0101 11.5871,-9.22039 23.3519,-20.51505 z m -687.5149,-7.46934 c 10.467,-1.45583 52.4856,-11.00639 93.3746,-21.22346 40.889,-10.21706 96.2196,-22.90018 122.957,-28.18474 l 48.6134,-9.60828 9.5461,-11.42011 9.546,-11.4201 -7.4432,1.58569 c -4.0938,0.87213 -15.431,3.28804 -25.1939,5.36869 -29.8573,6.36316 -65.017,9.6981 -83.6818,7.93732 -24.478,-2.30919 -60.3419,-11.61128 -96.4072,-25.00526 -60.8638,-22.60368 -79.6827,-27.73794 -95.7208,-26.11494 -39.6228,4.00968 -108.1461,41.02308 -128.8034,69.57421 -17.1332,23.68028 -9.9414,38.21802 23.3344,47.16944 16.5496,4.45195 101.2273,5.3266 129.8788,1.34154 z"
             style="fill:url(#linearGradient4704);fill-opacity:1;stroke-width:2.53581262" />
        </g>
        <g
           style="fill:url(#linearGradient4658);fill-opacity:1"
           id="g4650"
           transform="matrix(0.43092739,0,0,0.43092739,-245.0123,1057.5202)">
          <path
             sodipodi:nodetypes="cccccscccscscccsscccscccccccsscccssssscsccccccsssccsssccccssccccsccsccccssscccscccsscccsssccsssscsccccccccccccsssccscsscccccccscscscccccccsccscsscscscccccccccsc"
             style="fill:url(#linearGradient4767);fill-opacity:1;stroke-width:2.53581262"
             d="m 1939.5597,-90.962522 c -17.539,-8.002441 -26.7473,-20.975278 -33.2732,-46.876978 -5.7832,-22.9524 -4.4285,-122.87603 2.4062,-177.50689 7.6242,-60.94222 21.0354,-144.55993 37.2141,-232.02686 25.2316,-136.41084 26.8538,-149.83125 19.7692,-163.55991 -5.8608,-11.35758 -18.6359,-17.74171 -35.5128,-17.74676 -26.6879,-0.008 -93.6526,25.85449 -209.293,80.83118 l -32.289,15.35065 11.6117,24.81173 c 31.8716,68.10125 51.6986,125.41029 51.6986,149.43169 0,28.48567 -8.4774,37.36373 -63.409,66.4056 -79.3324,41.94224 -130.8416,62.87289 -160.9713,65.41005 -12.4207,1.04592 -16.7617,0.33224 -23.3723,-3.84254 -11.5857,-7.31686 -15.1665,-15.85241 -28.8033,-68.6569 -12.4146,-48.07064 -27.2727,-99.39828 -34.3438,-118.63899 -2.7762,-7.55454 -5.4142,-10.7772 -8.8223,-10.7772 -4.7309,0 -4.862,3.62048 -4.862,134.21694 0,118.63431 -0.4625,134.67959 -3.9847,138.20179 -5.3889,5.38875 -11.736,5.01145 -22.4962,-1.33727 l -9.0204,-5.32208 v -141.43622 c 0,-121.17561 -0.5622,-143.02572 -3.924,-152.53223 -6.4604,-18.26903 -7.4413,-46.26739 -2.4939,-71.19709 4.3301,-21.82098 4.3169,-22.24851 -1.202,-38.83313 -3.0693,-9.22308 -5.9361,-16.41107 -6.3707,-15.97332 -0.4347,0.43776 -5.0017,13.91877 -10.1491,29.95779 -27.3363,85.18053 -80.1063,185.82775 -130.2951,248.50964 -20.1709,25.19162 -62.6447,67.29474 -84.593,83.85443 -68.3168,51.54422 -143.4062,75.87189 -236.43708,76.60135 -75.14906,0.58924 -152.95463,-22.27423 -214.65044,-63.07583 -28.49569,-18.84522 -71.48228,-63.13966 -92.95655,-95.78475 -18.91158,-28.74954 -39.00333,-67.81993 -48.65159,-94.60754 l -5.64396,-15.67006 -29.12482,26.35628 c -107.81996,97.57082 -251.26301,182.50284 -361.55539,214.07553 -167.0720024,47.82657 -295.78173,-2.13221 -397.888,-154.44045 -72.28105,-107.81889 -96.89491,-246.59522 -62.54023,-352.60923 39.64261,-122.33189 181.5203,-230.8835 331.194354,-253.3994 10.118145,-1.5221 30.372948,-3.5002 45.010672,-4.3958 24.571514,-1.5035 26.613864,-2.0257 26.613864,-6.8051 0,-9.3304 25.52016,-30.8644 51.15519,-43.1648 27.65253,-13.2685 83.74039,-32.4398 111.66375,-38.1677 25.208,-5.1708 58.12285,-5.1453 75.64658,0.059 28.1356,8.3554 57.06922,48.6565 107.22277,149.34863 38.25578,76.80497 47.58833,104.64411 42.49084,126.74988 -1.61303,6.9959 -5.8557,16.94011 -9.4279,22.09823 -19.30514,27.87508 -132.76905,103.48682 -170.32748,113.50501 -22.36713,5.96613 -46.05771,-6.60458 -93.04429,-49.37103 -86.81759,-79.02013 -129.791755,-102.53741 -195.257559,-106.85304 -27.9740689,-1.84409 -41.273138,1.38808 -54.360466,13.21177 -16.096323,14.54192 -20.684622,29.14439 -23.424568,74.54913 -5.623671,93.18765 11.624418,158.71718 61.3395294,233.04195 59.1554336,88.43837 144.1860436,123.76786 222.6719736,92.51821 48.09752,-19.15033 74.38806,-42.24015 150.53268,-132.20606 73.76907,-87.15928 90.19834,-104.65616 116.42372,-123.98943 l 20.00147,-14.74499 0.0254,-55.85439 c 0,-30.71992 1.19209,-65.52395 2.62989,-77.34228 11.23111,-92.31147 51.53456,-150.47259 113.34904,-163.57129 34.38207,-7.2857 58.82375,-3.4508 74.78619,11.734 l 10.41204,9.9048 28.11177,-27.3811 c 80.23158,-78.1561 158.19387,-123.7406 242.37803,-141.7241 29.12197,-6.2211 95.72507,-6.1511 127.73897,0.1342 65.3324,12.8269 122.0664,41.2695 168.9021,84.6765 l 18.9697,17.581 44.4256,-21.8751 c 116.6413,-57.4338 207.5421,-81.6685 292.8017,-78.0628 53.6464,2.2688 99.4193,13.6854 144.6749,36.0847 42.4594,21.0152 65.2488,44.5798 73.5388,76.0402 14.1473,53.6885 -26.8433,138.63068 -107.5009,222.76826 l -14.2183,14.83162 15.2149,-7.54661 c 24.5086,-12.1563 83.8633,-35.07044 115.3794,-44.54274 82.3285,-24.74413 172.2679,-36.98485 247.4771,-33.68165 l 35.7367,1.56957 2.9045,-9.69485 c 21.0959,-70.41187 174.3318,-164.3708 325.0125,-199.2864 47.9523,-11.1114 130.992,-17.5615 180.0427,-13.9847 52.5697,3.8334 105.466,18.7763 162.2783,45.8427 60.8121,28.9719 96.2828,54.2401 101.2216,72.1071 3.048,11.02735 -2.261,21.98328 -15.1921,31.35047 -25.9518,18.79949 -117.9825,38.5431 -160.8222,34.50171 -24.478,-2.30919 -60.342,-11.61127 -96.4073,-25.00525 -60.8638,-22.60369 -79.6826,-27.73795 -95.7209,-26.11495 -18.398,1.86183 -53.7011,15.01752 -78.7341,29.34036 -53.5326,30.62886 -73.5442,64.12298 -47.5027,79.50611 15.4031,9.09882 35.1342,11.88568 84.1515,11.88568 58.7839,0 73.6268,-2.02411 140.5669,-19.16887 104.2523,-26.70129 190.0883,-43.84207 247.4012,-49.40417 35.5128,-3.44645 56.0686,0.11634 86.8067,15.0456 55.2802,26.84902 65.569,59.56295 27.4667,87.33101 -16.5328,12.04856 -28.9882,17.96142 -94.3249,44.7785 -191.2713,78.50605 -254.8844,114.37088 -360.0854,203.01488 -84.4367,71.14762 -116.6473,106.26272 -116.6473,127.16535 0,16.56078 11.2473,23.9403 41.8409,27.45212 61.7176,7.08453 148.7457,-22.81392 239.6342,-82.32614 13.2497,-8.6756 63.2361,-42.73172 111.0811,-75.68024 114.5228,-78.86626 145.9499,-96.54747 184.0617,-103.55473 19.8026,-3.64089 42.5321,1.64501 61.7391,14.35785 18.5931,12.3064 26.8345,25.63057 28.0948,45.42213 1.0874,17.07974 -3.131,28.73081 -15.8947,43.89961 l -6.4608,7.67814 v 133.33959 133.3396 l -5.9972,3.92957 c -4.5588,2.98701 -7.6,3.32019 -12.679,1.38912 -3.6752,-1.39723 -6.9398,-2.85396 -7.2547,-3.23714 -0.3152,-0.38319 -1.1711,-55.79021 -1.9019,-123.12672 l -1.329,-122.42997 -20.2865,14.8906 c -159.3221,116.94483 -370.3651,227.82793 -519.4637,272.92906 -53.6299,16.22263 -86.9003,22.01772 -134.7759,23.47556 -62.0493,1.88946 -103.2444,-6.25608 -149.4563,-29.55218 -11.0713,-5.58125 -20.695,-9.58261 -21.3857,-8.89188 -0.6908,0.69071 -1.7591,30.04984 -2.3743,65.24253 -1.0166,58.15742 -1.5999,65.01649 -6.4014,75.29084 -6.851,14.66022 -21.9487,29.61682 -35.9576,35.62172 -26.5593,11.38464 -115.8902,24.289311 -185.0831,26.736979 -31.4641,1.113044 -39.5678,0.647216 -46.8945,-2.695671 z M 1035.3026,-429.23572 c 46.5205,-20.41575 78.3685,-71.40486 100.0979,-160.25854 14.693,-60.0805 18.8956,-97.65729 19.1122,-170.88725 0.1674,-56.78016 -0.4532,-68.21805 -4.4747,-82.40792 -19.9409,-70.35826 -63.8677,-117.30312 -128.4605,-137.28613 -15.8607,-4.90685 -24.70258,-5.89286 -53.25202,-5.93852 -18.82841,-0.0301 -36.23043,0.76527 -38.67115,1.76752 -4.1567,1.70689 -4.43767,11.4412 -4.43767,153.74012 0,165.71386 0.62356,158.89311 -14.36893,157.15975 -13.45096,-1.55516 -13.44716,-1.51 -13.48773,-156.22492 l -0.0373,-142.72869 -5.54836,2.96945 c -18.85783,10.0924 -44.76115,42.25051 -74.38578,92.3473 -33.66418,56.92816 -48.20022,74.38918 -65.52945,78.71467 -7.25547,1.81103 -7.26029,1.82586 -5.5514,17.31417 4.13667,37.49156 27.10758,122.68249 46.21569,171.39621 38.65668,98.54962 91.57808,160.74991 152.97973,179.80213 23.31376,7.23394 26.323,7.61575 53.25207,6.75634 17.8529,-0.56975 27.3155,-2.1843 36.5474,-6.23569 z M 2273.479,-614.26377 c 20.3869,-15.3417 79.04,-55.18892 123.7768,-84.09075 l 25.3581,-16.38236 -54.5199,-1.53072 c -44.4516,-1.24805 -58.2266,-2.5365 -74.5917,-6.97696 -11.0394,-2.9954 -20.4569,-5.06097 -20.9278,-4.59015 -0.4709,0.47085 -4.8198,27.00334 -9.6645,58.96112 -4.8447,31.95776 -9.2476,60.67254 -9.7842,63.81061 -0.5368,3.13807 -0.6339,5.70558 -0.2155,5.70558 0.4181,0 9.6741,-6.70786 20.569,-14.90637 z m -699.9428,-269.7386 c 18.2751,-28.86853 23.8133,-66.69712 12.8936,-88.06768 -9.4231,-18.44152 -15.963,-21.60944 -44.5626,-21.58676 -13.4961,0.0106 -29.4111,1.4873 -35.3667,3.28132 l -10.8287,3.26187 13.3645,15.09999 c 16.8337,19.02004 37.3345,52.64037 47.9897,78.70122 4.5173,11.04798 8.5449,20.08724 8.9504,20.08724 0.4055,0 3.8073,-4.84974 7.5598,-10.7772 z"
             id="path4648"
             inkscape:connector-curvature="0" />
        </g>
        <g
           id="g4698"
           transform="translate(1844.918,947.35856)"
           style="stroke:#5fbcd3;stroke-width:7.60743761;stroke-miterlimit:4;stroke-dasharray:none">
          <path
             style="fill:none;fill-opacity:1;stroke:#5fbcd3;stroke-width:7.60743761;stroke-miterlimit:4;stroke-dasharray:none"
             d="m -1201.5225,-436.12815 c -49.5008,-5.6878 -84.0631,-28.1526 -103.7427,-67.4307 -4.6589,-9.2985 -10.9962,-28.4996 -10.9962,-33.317 0,-2.1422 -0.3768,-4.1279 -0.8375,-4.4126 -0.4606,-0.2847 -9.4348,4.7739 -19.9427,11.2413 -71.3884,43.9383 -140.8574,74.896 -193.2541,86.1205 -12.4432,2.6655 -16.0129,2.9583 -36.2056,2.9695 -25.0834,0.013 -33.196,-1.3617 -51.1136,-8.6667 -15.9063,-6.4849 -33.4699,-19.1893 -39.903,-28.8632 l -1.7329,-2.6059 -6.3505,5.6952 c -7.735,6.9368 -22.1195,16.6696 -29.3895,19.8855 -13.7463,6.0807 -21.0757,6.5155 -42.7265,2.5351 -90.1726,-16.5779 -154.5758,-56.3559 -202.5066,-125.0762 l -5.7162,-8.1956 0.6,64.0608 c 0.6595,70.3993 0.8007,68.7085 -5.7377,68.7085 -6.0522,0 -6.0488,0.025 -6.4693,-45.9842 l -0.3873,-42.3706 -5.2577,7.8434 c -8.2733,12.342 -22.0806,28.3056 -39.8633,46.089 -25.9394,25.9405 -44.4511,39.5307 -57.6044,42.2896 -9.1671,1.9228 -14.5701,-0.4742 -24.8983,-11.046 -17.0951,-17.4983 -33.2791,-51.6482 -42.6379,-89.9704 -10.0053,-40.9695 -13.8521,-87.6143 -12.6928,-153.906 0.7455,-42.6268 1.9989,-59.3431 4.9501,-66.0146 3.1029,-7.0145 8.3089,-10.6679 22.2521,-15.616 36.3939,-12.9154 63.6643,-17.8927 71.1562,-12.9871 6.0604,3.9681 6.1982,5.2922 5.4448,52.3159 -0.8093,50.515 0.7936,83.7003 5.7652,119.3593 1.0082,7.2313 1.5991,5.4337 6.3599,-19.3461 7.6948,-40.0523 11.4817,-69.0423 11.523,-88.215 0.019,-8.5589 0.471,-11.3446 2.5783,-15.8698 8.4521,-18.1506 49.4739,-39.25 83.902,-43.1547 14.0979,-1.599 21.3752,0.5376 28.163,8.2685 4.2331,4.8213 5.5817,7.6786 14.9297,31.6328 22.6955,58.1574 52.6846,105.1254 92.8028,145.3446 25.9861,26.0514 49.1807,39.8092 67.484,40.0278 7.5026,0.09 10.1316,-1.2859 11.7332,-6.1393 3.4569,-10.4744 -7.8191,-33.7724 -30.3469,-62.7015 -22.5576,-28.9672 -54.2165,-62.6539 -84.931,-90.3711 -30.5896,-27.6043 -33.329,-30.9465 -33.329,-40.6636 0,-9.0568 10.8302,-20.4045 34.7919,-36.4545 25.8889,-17.3408 39.7662,-22.9474 51.0176,-20.6117 18.1661,3.7713 70.4473,49.3829 102.9292,89.7984 4.6766,5.8189 8.7939,10.6133 9.1495,10.6543 0.3556,0.041 1.2104,-1.8072 1.8995,-4.1072 9.092,-30.3464 75.1213,-70.8348 140.0579,-85.8819 20.664,-4.7882 56.4481,-7.5677 77.5854,-6.0263 22.6536,1.6519 45.4482,8.0912 69.9301,19.7548 31.3264,14.9244 44.6417,25.5409 43.9848,35.0696 -0.1222,1.7729 0.1349,1.7841 3.8979,0.17 28.2929,-12.1362 71.1592,-27.0079 98.5519,-34.191 37.7831,-9.9076 65.1106,-14.2111 95.8243,-15.0901 29.4868,-0.8439 39.435,1.1035 60.5406,11.8507 26.6815,13.5866 35.85,31.6022 26.3299,51.7368 -5.0978,10.7816 -21.1696,26.4844 -39.5445,38.6365 l -13.6594,9.0336 8.742,-0.8371 c 4.8082,-0.4605 23.0025,-0.856 40.4319,-0.8789 28.6135,-0.038 32.8622,0.1961 43.7675,2.4086 22.32383,4.5292 39.08783,11.8565 53.70873,23.4752 15.2309,12.1034 25.8854,29.7414 30.0055,49.6724 2.929,14.1693 2.3705,37.0626 -1.2082,49.522 -13.9256,48.4814 -66.2934,91.8637 -145.57263,120.5946 -27.3155,9.8992 -61.1868,17.9406 -85.5216,20.3038 -13.743,1.3346 -36.7931,1.3034 -48.7109,-0.066 z m 91.0673,-75.8975 c 21.7106,-5.5878 48.1207,-24.3147 60.5591,-42.9414 8.563,-12.8232 12.1853,-27.5106 10.1228,-41.0441 -2.8489,-18.6921 -13.0568,-28.8621 -34.8216,-34.6922 -14.4615,-3.8737 -48.7219,-2.8421 -76.2195,2.295 -2.7024,0.5049 -5.1444,1.1489 -5.4268,1.4312 -0.2822,0.2823 1.4368,8.3323 3.8201,17.8889 7.5749,30.3733 11.8911,55.7744 14.4439,85.0024 l 1.3254,15.1748 9.7313,-0.6907 c 5.3522,-0.3799 12.7615,-1.4707 16.4653,-2.4239 z m -390.4811,-8.1467 c 23.1715,-2.4326 51.6288,-13.5476 80.1358,-31.3001 8.8981,-5.5412 61.7903,-42.0432 62.9549,-43.4466 0.8082,-0.9738 1.0926,-12.0487 0.8953,-34.8646 l -0.2892,-33.4375 -18.0304,7.9765 c -46.3955,20.5252 -73.102,37.101 -110.3678,68.5018 -36.3861,30.6595 -50.2666,45.7915 -50.2666,54.799 0,6.91 4.8886,10.3141 16.9377,11.7945 3.606,0.4431 6.8023,0.8643 7.1028,0.9361 0.3005,0.072 5.2179,-0.3598 10.9275,-0.9591 z m 168.2976,-91.3254 c 17.7863,-11.6537 33.0775,-18.8486 45.9544,-21.6227 1.5426,-0.3323 3.4259,-1.765 4.1851,-3.1837 1.2403,-2.3174 0.4713,-4.6796 -7.5691,-23.2504 -4.9223,-11.3691 -9.4967,-22.0277 -10.1654,-23.686 -0.6687,-1.6583 -1.5135,-2.8876 -1.8775,-2.7319 -0.3639,0.1557 -10.0892,4.1584 -21.6117,8.8949 l -20.9499,8.6117 v 32.0932 c 0,17.6513 0.2287,32.0933 0.5086,32.0933 0.2797,0 5.4662,-3.2483 11.5255,-7.2184 z m -250.648,-4.0193 c 8.3304,-5.5798 20.0636,-13.3246 26.0738,-17.2108 l 10.9275,-7.0659 -23.4942,-0.6639 c -19.4742,-0.5504 -25.0834,-1.0866 -32.7825,-3.1342 -5.1086,-1.3587 -10.2235,-2.9612 -11.3664,-3.5611 -1.6138,-0.847 -1.9313,-0.7571 -1.4216,0.4024 3.7539,8.538 12.8464,31.1375 14.3398,35.6415 1.0461,3.1553 2.054,5.737 2.2397,5.737 0.1856,0 7.1534,-4.5653 15.4839,-10.145 z m 401.9608,-90.4955 c 19.9597,-19.1622 21.3146,-29.4345 3.874,-29.3709 -6.81,0.025 -24.4022,3.2196 -25.8829,4.7004 -0.8654,0.8653 10.7677,33.4985 11.9459,33.511 0.4649,0 4.9932,-3.9734 10.063,-8.8405 z m -296.269,-3.2188 c 4.5105,-0.6273 22.6175,-4.7429 40.2377,-9.1458 17.6202,-4.4028 41.4636,-9.8683 52.9855,-12.1455 l 20.9489,-4.1405 4.1136,-4.9212 4.1137,-4.9213 -3.2075,0.6833 c -1.7641,0.3759 -6.6497,1.4169 -10.8568,2.3136 -12.8663,2.742 -28.0176,4.1791 -36.0607,3.4204 -10.5483,-0.9951 -26.003,-5.0037 -41.5446,-10.7755 -26.2278,-9.7405 -34.3374,-11.953 -41.2486,-11.2536 -17.0746,1.7279 -46.6032,17.6779 -55.505,29.9814 -7.3831,10.2045 -4.284,16.4692 10.0555,20.3266 7.1316,1.9185 43.6216,2.2954 55.9683,0.5781 z"
             id="path4636-6"
             inkscape:connector-curvature="0"
             sodipodi:nodetypes="csscsscsccccsccsssccsscsscccsscccscssccsssscscccsccsssccccsssccssscccccsscsscccsccccsssccscccsscscssccccsssccsccscccsssccccsssscss" />
          <path
             inkscape:connector-curvature="0"
             id="path4648-6"
             d="m -1254.1199,70.963646 c -7.5581,-3.4485 -11.5262,-9.0388 -14.3384,-20.2006 -2.4921,-9.8908 -1.9083,-52.9505999 1.0369,-76.4926 3.2855,-26.2616 9.0647,-62.2948 16.0366,-99.986696 10.873,-58.7832 11.572,-64.5664 8.5191,-70.4824 -2.5256,-4.8943 -8.0307,-7.6454 -15.3035,-7.6476 -11.5005,0 -40.3574,11.1414 -90.19,34.8324 l -13.9143,6.615 5.0039,10.692 c 13.7343,29.3467 22.2783,54.042796 22.2783,64.394296 0,12.2752 -3.6532,16.101 -27.3247,28.6159 -34.1865,18.0741 -56.3832,27.0937 -69.3669,28.187 -5.3525,0.4507 -7.2231,0.1433 -10.0718,-1.6558 -4.9926,-3.1531 -6.5357,-6.8313 -12.4121,-29.5862 -5.3498,-20.7149 -11.7526,-42.833396 -14.7997,-51.124796 -1.1964,-3.2554 -2.3331,-4.6441 -3.8018,-4.6441 -2.0386,0 -2.0951,1.5601 -2.0951,57.837696 0,51.1228001 -0.1994,58.0371001 -1.7172,59.5549001 -2.3222,2.3222 -5.0573,2.1596 -9.6942,-0.5762 l -3.8871,-2.2935 V -63.946354 c 0,-52.217896 -0.2422,-61.633696 -1.691,-65.730296 -2.7839,-7.8726 -3.2066,-19.9379 -1.0747,-30.6808 1.866,-9.4032 1.8603,-9.5875 -0.5179,-16.7342 -1.3227,-3.9745 -2.5581,-7.072 -2.7454,-6.8834 -0.1874,0.1887 -2.1553,5.998 -4.3735,12.9096 -11.7799,36.7067 -34.52,80.078296 -56.1477,107.089696 -8.6922,10.8557 -26.9953,28.9991 -36.4535,36.1351 -29.4395,22.2119001 -61.7976,32.6953001 -101.8872,33.0096001 -32.3838,0.254 -65.9123,-9.5985 -92.4987,-27.1811001 -12.2796,-8.1209 -30.8037,-27.2086 -40.0575,-41.2762 -8.1496,-12.389 -16.8077,-29.2255 -20.9654,-40.768996 l -2.4321,-6.7527 -12.5507,11.357696 c -46.4626,42.0459 -108.2761,78.6454 -155.8041,92.2510001 -71.9959,20.6097999 -127.4604,-0.9188 -171.4608,-66.5526001 -31.1479,-46.462196 -41.7547,-106.264696 -26.9503,-151.948996 17.0831,-52.7162 78.222,-99.494 142.7207,-109.1967 4.3602,-0.656 13.0885,-1.5084 19.3963,-1.8943 10.5886,-0.6479 11.4687,-0.873 11.4687,-2.9325 0,-4.0207 10.9973,-13.3003 22.0441,-18.6009 11.9163,-5.7178 36.0861,-13.9792 48.119,-16.4475 10.8628,-2.2283 25.0467,-2.2173 32.5982,0.025 12.1244,3.6006 24.5927,20.9674 46.2052,64.3584 16.4855,33.0974 20.5071,45.094 18.3105,54.62 -0.6951,3.0147 -2.5234,7.2999 -4.0628,9.5227 -8.3191,12.0122 -57.2138,44.5953 -73.3987,48.9124 -9.6386,2.571 -19.8476,-2.8461 -40.0954,-21.2753 -37.412,-34.0519 -55.9308,-44.1862 -84.1418,-46.0459 -12.0548,-0.7947 -17.7857,0.5982 -23.4254,5.6933 -6.9363,6.2665 -8.9136,12.5592 -10.0943,32.1253 -2.4234,40.1571 5.0093,68.3956 26.4329,100.4241 25.4917,38.110596 62.1337,53.334996 95.9554,39.868696 20.7266,-8.2524 32.0559,-18.202396 64.8687,-56.971196 31.7891,-37.5594 38.8689,-45.0992 50.1702,-53.4305 l 8.6191,-6.354 0.01,-24.0692 c 0,-13.238 0.5138,-28.236 1.1333,-33.3289 4.8398,-39.7795 22.2077,-64.8428 48.8452,-70.4873 14.8162,-3.1396 25.3488,-1.4871 32.2275,5.0565 l 4.4868,4.2682 12.1141,-11.7992 c 34.574,-33.6796 68.1701,-53.3233 104.4474,-61.0728 12.5494,-2.6809 41.2505,-2.6507 55.0462,0.058 28.1535,5.5274 52.6017,17.7841 72.7845,36.4894 l 8.1746,7.5761 19.1442,-9.4266 c 50.2639,-24.7497 89.4356,-35.1931 126.1763,-33.6393 23.1177,0.9776 42.8425,5.8974 62.3443,15.5498 18.297,9.0561 28.1175,19.2107 31.6899,32.7678 6.0965,23.1359 -11.5675,59.7398 -46.3251,95.997 l -6.127,6.3913 6.5565,-3.252 c 10.5614,-5.2385 36.139,-15.1128 49.7201,-19.1947 35.4777,-10.6629 74.235,-15.9378 106.6447,-14.5143 l 15.3999,0.6763 1.2517,-4.1778 c 9.0907,-30.3423 75.1243,-70.8318 140.0567,-85.8779 20.66403,-4.7882 56.44813,-7.5677 77.58543,-6.0264 22.6537,1.6519 45.4482,8.0912 69.9301,19.7549 26.2056,12.4848 41.4909,23.3735 43.6192,31.0729 1.3135,4.752 -0.9743,9.4732 -6.5467,13.5098 -11.1833,8.1012 -50.8419,16.6092 -69.3027,14.8677 -10.5482,-0.9951 -26.003,-5.0036 -41.5445,-10.7755 -26.2279,-9.7405 -34.3374,-11.953 -41.2488,-11.2536 -7.9282,0.8023 -23.14133,6.4715 -33.92873,12.6436 -23.0686,13.1988 -31.6922,27.6323 -20.4702,34.2613 6.6376,3.921 15.1403,5.1219 36.2632,5.1219 25.33163,0 31.72783,-0.8722 60.57413,-8.2604 44.9252,-11.5063 81.9143,-18.8928 106.612,-21.2896 15.3034,-1.4852 24.1615,0.05 37.4074,6.4836 23.8217,11.5699 28.2555,25.6673 11.8361,37.6333 -7.1244,5.192 -12.4918,7.7401 -40.6472,19.2963 -82.424,33.8304 -109.8366,49.2855 -155.1706,87.4846 -36.38613,30.6595 -50.26653,45.791596 -50.26653,54.799096 0,7.1365 4.8467,10.3165 18.0304,11.8298 26.59583,3.053 64.09853,-9.8311 103.26493,-35.476596 5.7096,-3.7385 27.2502,-18.4142 47.8679,-32.6126 49.351,-33.9857 62.8938,-41.605 79.3172,-44.6246 8.5335,-1.569 18.3282,0.7089 26.6051,6.1872 8.0122,5.3031 11.5637,11.0449 12.1068,19.5736 0.4686,7.3601 -1.3492,12.3809 -6.8495,18.9176 l -2.7841,3.3087 v 57.459696 57.4596 l -2.5844,1.6934 c -1.9645,1.2872 -3.275,1.4308 -5.4637,0.5986 -1.5837,-0.6021 -2.9906,-1.2298 -3.1262,-1.3949 -0.136,-0.1651 -0.5047,-24.0416 -0.8196,-53.0587 l -0.5727,-52.758496 -8.742,6.4168 c -68.6563,50.394696 -159.6005,98.177296 -223.85123,117.6125961 -23.1106,6.9908 -37.4477,9.4881 -58.0786,10.1163 -26.7388,0.8142 -44.4908,-2.6959 -64.4048,-12.7349001 -4.7709,-2.4051 -8.918,-4.1294 -9.2157,-3.8317 -0.2977,0.2976 -0.758,12.9493001 -1.0231,28.1148 -0.4381,25.0616 -0.6895,28.0174 -2.7586,32.4449 -2.9523,6.3175 -9.4583,12.7627 -15.4951,15.3503 -11.4451,4.906 -49.9403,10.467 -79.7574,11.5217 -13.5587,0.47967 -17.0508,0.27894 -20.2081,-1.1616 z m -389.6692,-145.7712 c 20.047,-8.7977 33.7711,-30.770296 43.1349,-69.059796 6.3317,-25.8903 8.1427,-42.0832 8.236,-73.64 0.072,-24.4681 -0.1953,-29.397 -1.9283,-35.5118 -8.593,-30.3193 -27.5223,-50.5491 -55.3571,-59.1603 -6.8348,-2.1146 -10.645,-2.5395 -22.9478,-2.5591 -8.1137,-0.013 -15.6127,0.3297 -16.6644,0.7616 -1.7913,0.7356 -1.9123,4.9304 -1.9123,66.2509 0,71.4106 0.2687,68.4714 -6.192,67.7244 -5.7964,-0.6702 -5.7948,-0.6507 -5.8122,-67.3216 l -0.015,-61.5057 -2.391,1.2796 c -8.1264,4.3491 -19.2888,18.2069 -32.0549,39.795 -14.5068,24.5319 -20.7708,32.0564 -28.2384,33.9203 -3.1266,0.7804 -3.1287,0.7868 -2.3923,7.4612 1.7826,16.1561 11.6814,52.8672 19.9157,73.8593 16.6582,42.4677 39.4635,69.271496 65.9231,77.481596 10.0466,3.1173 11.3433,3.2819 22.9478,2.9115 7.6933,-0.2454 11.771,-0.9412 15.7493,-2.6871 z m 533.5641,-79.733596 c 8.7853,-6.6112 34.0605,-23.7825 53.3388,-36.2371 l 10.9275,-7.0596 -23.4941,-0.6596 c -19.1554,-0.5378 -25.0914,-1.093 -32.1436,-3.0065 -4.7572,-1.2908 -8.8154,-2.181 -9.0183,-1.9781 -0.2029,0.2029 -2.077,11.6365 -4.1648,25.408 -2.0877,13.7715 -3.985,26.1455 -4.2162,27.4977 -0.2313,1.3523 -0.2732,2.4587 -0.093,2.4587 0.1803,0 4.1688,-2.8906 8.8637,-6.4235 z m -301.6245,-116.2378 c 7.8753,-12.4402 10.2618,-28.7416 5.5562,-37.9508 -4.0607,-7.9469 -6.8789,-9.3121 -19.2032,-9.3023 -5.8159,0.01 -12.6741,0.6409 -15.2405,1.414 l -4.6664,1.4056 5.7591,6.507 c 7.2541,8.1963 16.0885,22.6842 20.6801,33.9146 1.9466,4.7608 3.6822,8.6561 3.857,8.6561 0.1747,0 1.6406,-2.0899 3.2577,-4.6442 z"
             style="fill:none;fill-opacity:1;stroke:#5fbcd3;stroke-width:7.60743761;stroke-miterlimit:4;stroke-dasharray:none"
             sodipodi:nodetypes="cccccscccscscccsscccscccccccsscccssssscsccccccsssccsssccccssccccsccsccccssscccscccsscccsssccsssscsccccccccccccsssccscsscccccccscscscccccccsccscsscscscccccccccsc" />
        </g>
        <g
           style="stroke:#4d4d4d;stroke-width:7.60743761;stroke-miterlimit:4;stroke-dasharray:none;stroke-opacity:1"
           transform="translate(1844.918,947.35856)"
           id="g4802">
          <path
             sodipodi:nodetypes="csscsscsccccsccsssccsscsscccsscccscssccsssscscccsccsssccccsssccssscccccsscsscccsccccsssccscccsscscssccccsssccsccscccsssccccsssscss"
             inkscape:connector-curvature="0"
             id="path4798"
             d="m -1201.5225,-436.12815 c -49.5008,-5.6878 -84.0631,-28.1526 -103.7427,-67.4307 -4.6589,-9.2985 -10.9962,-28.4996 -10.9962,-33.317 0,-2.1422 -0.3768,-4.1279 -0.8375,-4.4126 -0.4606,-0.2847 -9.4348,4.7739 -19.9427,11.2413 -71.3884,43.9383 -140.8574,74.896 -193.2541,86.1205 -12.4432,2.6655 -16.0129,2.9583 -36.2056,2.9695 -25.0834,0.013 -33.196,-1.3617 -51.1136,-8.6667 -15.9063,-6.4849 -33.4699,-19.1893 -39.903,-28.8632 l -1.7329,-2.6059 -6.3505,5.6952 c -7.735,6.9368 -22.1195,16.6696 -29.3895,19.8855 -13.7463,6.0807 -21.0757,6.5155 -42.7265,2.5351 -90.1726,-16.5779 -154.5758,-56.3559 -202.5066,-125.0762 l -5.7162,-8.1956 0.6,64.0608 c 0.6595,70.3993 0.8007,68.7085 -5.7377,68.7085 -6.0522,0 -6.0488,0.025 -6.4693,-45.9842 l -0.3873,-42.3706 -5.2577,7.8434 c -8.2733,12.342 -22.0806,28.3056 -39.8633,46.089 -25.9394,25.9405 -44.4511,39.5307 -57.6044,42.2896 -9.1671,1.9228 -14.5701,-0.4742 -24.8983,-11.046 -17.0951,-17.4983 -33.2791,-51.6482 -42.6379,-89.9704 -10.0053,-40.9695 -13.8521,-87.6143 -12.6928,-153.906 0.7455,-42.6268 1.9989,-59.3431 4.9501,-66.0146 3.1029,-7.0145 8.3089,-10.6679 22.2521,-15.616 36.3939,-12.9154 63.6643,-17.8927 71.1562,-12.9871 6.0604,3.9681 6.1982,5.2922 5.4448,52.3159 -0.8093,50.515 0.7936,83.7003 5.7652,119.3593 1.0082,7.2313 1.5991,5.4337 6.3599,-19.3461 7.6948,-40.0523 11.4817,-69.0423 11.523,-88.215 0.019,-8.5589 0.471,-11.3446 2.5783,-15.8698 8.4521,-18.1506 49.4739,-39.25 83.902,-43.1547 14.0979,-1.599 21.3752,0.5376 28.163,8.2685 4.2331,4.8213 5.5817,7.6786 14.9297,31.6328 22.6955,58.1574 52.6846,105.1254 92.8028,145.3446 25.9861,26.0514 49.1807,39.8092 67.484,40.0278 7.5026,0.09 10.1316,-1.2859 11.7332,-6.1393 3.4569,-10.4744 -7.8191,-33.7724 -30.3469,-62.7015 -22.5576,-28.9672 -54.2165,-62.6539 -84.931,-90.3711 -30.5896,-27.6043 -33.329,-30.9465 -33.329,-40.6636 0,-9.0568 10.8302,-20.4045 34.7919,-36.4545 25.8889,-17.3408 39.7662,-22.9474 51.0176,-20.6117 18.1661,3.7713 70.4473,49.3829 102.9292,89.7984 4.6766,5.8189 8.7939,10.6133 9.1495,10.6543 0.3556,0.041 1.2104,-1.8072 1.8995,-4.1072 9.092,-30.3464 75.1213,-70.8348 140.0579,-85.8819 20.664,-4.7882 56.4481,-7.5677 77.5854,-6.0263 22.6536,1.6519 45.4482,8.0912 69.9301,19.7548 31.3264,14.9244 44.6417,25.5409 43.9848,35.0696 -0.1222,1.7729 0.1349,1.7841 3.8979,0.17 28.2929,-12.1362 71.1592,-27.0079 98.5519,-34.191 37.7831,-9.9076 65.1106,-14.2111 95.8243,-15.0901 29.4868,-0.8439 39.435,1.1035 60.5406,11.8507 26.6815,13.5866 35.85,31.6022 26.3299,51.7368 -5.0978,10.7816 -21.1696,26.4844 -39.5445,38.6365 l -13.6594,9.0336 8.742,-0.8371 c 4.8082,-0.4605 23.0025,-0.856 40.4319,-0.8789 28.6135,-0.038 32.8622,0.1961 43.7675,2.4086 22.32383,4.5292 39.08783,11.8565 53.70873,23.4752 15.2309,12.1034 25.8854,29.7414 30.0055,49.6724 2.929,14.1693 2.3705,37.0626 -1.2082,49.522 -13.9256,48.4814 -66.2934,91.8637 -145.57263,120.5946 -27.3155,9.8992 -61.1868,17.9406 -85.5216,20.3038 -13.743,1.3346 -36.7931,1.3034 -48.7109,-0.066 z m 91.0673,-75.8975 c 21.7106,-5.5878 48.1207,-24.3147 60.5591,-42.9414 8.563,-12.8232 12.1853,-27.5106 10.1228,-41.0441 -2.8489,-18.6921 -13.0568,-28.8621 -34.8216,-34.6922 -14.4615,-3.8737 -48.7219,-2.8421 -76.2195,2.295 -2.7024,0.5049 -5.1444,1.1489 -5.4268,1.4312 -0.2822,0.2823 1.4368,8.3323 3.8201,17.8889 7.5749,30.3733 11.8911,55.7744 14.4439,85.0024 l 1.3254,15.1748 9.7313,-0.6907 c 5.3522,-0.3799 12.7615,-1.4707 16.4653,-2.4239 z m -390.4811,-8.1467 c 23.1715,-2.4326 51.6288,-13.5476 80.1358,-31.3001 8.8981,-5.5412 61.7903,-42.0432 62.9549,-43.4466 0.8082,-0.9738 1.0926,-12.0487 0.8953,-34.8646 l -0.2892,-33.4375 -18.0304,7.9765 c -46.3955,20.5252 -73.102,37.101 -110.3678,68.5018 -36.3861,30.6595 -50.2666,45.7915 -50.2666,54.799 0,6.91 4.8886,10.3141 16.9377,11.7945 3.606,0.4431 6.8023,0.8643 7.1028,0.9361 0.3005,0.072 5.2179,-0.3598 10.9275,-0.9591 z m 168.2976,-91.3254 c 17.7863,-11.6537 33.0775,-18.8486 45.9544,-21.6227 1.5426,-0.3323 3.4259,-1.765 4.1851,-3.1837 1.2403,-2.3174 0.4713,-4.6796 -7.5691,-23.2504 -4.9223,-11.3691 -9.4967,-22.0277 -10.1654,-23.686 -0.6687,-1.6583 -1.5135,-2.8876 -1.8775,-2.7319 -0.3639,0.1557 -10.0892,4.1584 -21.6117,8.8949 l -20.9499,8.6117 v 32.0932 c 0,17.6513 0.2287,32.0933 0.5086,32.0933 0.2797,0 5.4662,-3.2483 11.5255,-7.2184 z m -250.648,-4.0193 c 8.3304,-5.5798 20.0636,-13.3246 26.0738,-17.2108 l 10.9275,-7.0659 -23.4942,-0.6639 c -19.4742,-0.5504 -25.0834,-1.0866 -32.7825,-3.1342 -5.1086,-1.3587 -10.2235,-2.9612 -11.3664,-3.5611 -1.6138,-0.847 -1.9313,-0.7571 -1.4216,0.4024 3.7539,8.538 12.8464,31.1375 14.3398,35.6415 1.0461,3.1553 2.054,5.737 2.2397,5.737 0.1856,0 7.1534,-4.5653 15.4839,-10.145 z m 401.9608,-90.4955 c 19.9597,-19.1622 21.3146,-29.4345 3.874,-29.3709 -6.81,0.025 -24.4022,3.2196 -25.8829,4.7004 -0.8654,0.8653 10.7677,33.4985 11.9459,33.511 0.4649,0 4.9932,-3.9734 10.063,-8.8405 z m -296.269,-3.2188 c 4.5105,-0.6273 22.6175,-4.7429 40.2377,-9.1458 17.6202,-4.4028 41.4636,-9.8683 52.9855,-12.1455 l 20.9489,-4.1405 4.1136,-4.9212 4.1137,-4.9213 -3.2075,0.6833 c -1.7641,0.3759 -6.6497,1.4169 -10.8568,2.3136 -12.8663,2.742 -28.0176,4.1791 -36.0607,3.4204 -10.5483,-0.9951 -26.003,-5.0037 -41.5446,-10.7755 -26.2278,-9.7405 -34.3374,-11.953 -41.2486,-11.2536 -17.0746,1.7279 -46.6032,17.6779 -55.505,29.9814 -7.3831,10.2045 -4.284,16.4692 10.0555,20.3266 7.1316,1.9185 43.6216,2.2954 55.9683,0.5781 z"
             style="fill:none;fill-opacity:1;stroke:url(#linearGradient4840);stroke-width:10.26070987;stroke-miterlimit:4;stroke-dasharray:none;stroke-opacity:1" />
          <path
             sodipodi:nodetypes="cccccscccscscccsscccscccccccsscccssssscsccccccsssccsssccccssccccsccsccccssscccscccsscccsssccsssscsccccccccccccsssccscsscccccccscscscccccccsccscsscscscccccccccsc"
             style="fill:none;fill-opacity:1;stroke:url(#linearGradient4832);stroke-width:10.26070987;stroke-miterlimit:4;stroke-dasharray:none;stroke-opacity:1"
             d="m -1254.1199,70.963646 c -7.5581,-3.4485 -11.5262,-9.0388 -14.3384,-20.2006 -2.4921,-9.8908 -1.9083,-52.9505999 1.0369,-76.4926 3.2855,-26.2616 9.0647,-62.2948 16.0366,-99.986696 10.873,-58.7832 11.572,-64.5664 8.5191,-70.4824 -2.5256,-4.8943 -8.0307,-7.6454 -15.3035,-7.6476 -11.5005,0 -40.3574,11.1414 -90.19,34.8324 l -13.9143,6.615 5.0039,10.692 c 13.7343,29.3467 22.2783,54.042796 22.2783,64.394296 0,12.2752 -3.6532,16.101 -27.3247,28.6159 -34.1865,18.0741 -56.3832,27.0937 -69.3669,28.187 -5.3525,0.4507 -7.2231,0.1433 -10.0718,-1.6558 -4.9926,-3.1531 -6.5357,-6.8313 -12.4121,-29.5862 -5.3498,-20.7149 -11.7526,-42.833396 -14.7997,-51.124796 -1.1964,-3.2554 -2.3331,-4.6441 -3.8018,-4.6441 -2.0386,0 -2.0951,1.5601 -2.0951,57.837696 0,51.1228001 -0.1994,58.0371001 -1.7172,59.5549001 -2.3222,2.3222 -5.0573,2.1596 -9.6942,-0.5762 l -3.8871,-2.2935 V -63.946354 c 0,-52.217896 -0.2422,-61.633696 -1.691,-65.730296 -2.7839,-7.8726 -3.2066,-19.9379 -1.0747,-30.6808 1.866,-9.4032 1.8603,-9.5875 -0.5179,-16.7342 -1.3227,-3.9745 -2.5581,-7.072 -2.7454,-6.8834 -0.1874,0.1887 -2.1553,5.998 -4.3735,12.9096 -11.7799,36.7067 -34.52,80.078296 -56.1477,107.089696 -8.6922,10.8557 -26.9953,28.9991 -36.4535,36.1351 -29.4395,22.2119001 -61.7976,32.6953001 -101.8872,33.0096001 -32.3838,0.254 -65.9123,-9.5985 -92.4987,-27.1811001 -12.2796,-8.1209 -30.8037,-27.2086 -40.0575,-41.2762 -8.1496,-12.389 -16.8077,-29.2255 -20.9654,-40.768996 l -2.4321,-6.7527 -12.5507,11.357696 c -46.4626,42.0459 -108.2761,78.6454 -155.8041,92.2510001 -71.9959,20.6097999 -127.4604,-0.9188 -171.4608,-66.5526001 -31.1479,-46.462196 -41.7547,-106.264696 -26.9503,-151.948996 17.0831,-52.7162 78.222,-99.494 142.7207,-109.1967 4.3602,-0.656 13.0885,-1.5084 19.3963,-1.8943 10.5886,-0.6479 11.4687,-0.873 11.4687,-2.9325 0,-4.0207 10.9973,-13.3003 22.0441,-18.6009 11.9163,-5.7178 36.0861,-13.9792 48.119,-16.4475 10.8628,-2.2283 25.0467,-2.2173 32.5982,0.025 12.1244,3.6006 24.5927,20.9674 46.2052,64.3584 16.4855,33.0974 20.5071,45.094 18.3105,54.62 -0.6951,3.0147 -2.5234,7.2999 -4.0628,9.5227 -8.3191,12.0122 -57.2138,44.5953 -73.3987,48.9124 -9.6386,2.571 -19.8476,-2.8461 -40.0954,-21.2753 -37.412,-34.0519 -55.9308,-44.1862 -84.1418,-46.0459 -12.0548,-0.7947 -17.7857,0.5982 -23.4254,5.6933 -6.9363,6.2665 -8.9136,12.5592 -10.0943,32.1253 -2.4234,40.1571 5.0093,68.3956 26.4329,100.4241 25.4917,38.110596 62.1337,53.334996 95.9554,39.868696 20.7266,-8.2524 32.0559,-18.202396 64.8687,-56.971196 31.7891,-37.5594 38.8689,-45.0992 50.1702,-53.4305 l 8.6191,-6.354 0.01,-24.0692 c 0,-13.238 0.5138,-28.236 1.1333,-33.3289 4.8398,-39.7795 22.2077,-64.8428 48.8452,-70.4873 14.8162,-3.1396 25.3488,-1.4871 32.2275,5.0565 l 4.4868,4.2682 12.1141,-11.7992 c 34.574,-33.6796 68.1701,-53.3233 104.4474,-61.0728 12.5494,-2.6809 41.2505,-2.6507 55.0462,0.058 28.1535,5.5274 52.6017,17.7841 72.7845,36.4894 l 8.1746,7.5761 19.1442,-9.4266 c 50.2639,-24.7497 89.4356,-35.1931 126.1763,-33.6393 23.1177,0.9776 42.8425,5.8974 62.3443,15.5498 18.297,9.0561 28.1175,19.2107 31.6899,32.7678 6.0965,23.1359 -11.5675,59.7398 -46.3251,95.997 l -6.127,6.3913 6.5565,-3.252 c 10.5614,-5.2385 36.139,-15.1128 49.7201,-19.1947 35.4777,-10.6629 74.235,-15.9378 106.6447,-14.5143 l 15.3999,0.6763 1.2517,-4.1778 c 9.0907,-30.3423 75.1243,-70.8318 140.0567,-85.8779 20.66403,-4.7882 56.44813,-7.5677 77.58543,-6.0264 22.6537,1.6519 45.4482,8.0912 69.9301,19.7549 26.2056,12.4848 41.4909,23.3735 43.6192,31.0729 1.3135,4.752 -0.9743,9.4732 -6.5467,13.5098 -11.1833,8.1012 -50.8419,16.6092 -69.3027,14.8677 -10.5482,-0.9951 -26.003,-5.0036 -41.5445,-10.7755 -26.2279,-9.7405 -34.3374,-11.953 -41.2488,-11.2536 -7.9282,0.8023 -23.14133,6.4715 -33.92873,12.6436 -23.0686,13.1988 -31.6922,27.6323 -20.4702,34.2613 6.6376,3.921 15.1403,5.1219 36.2632,5.1219 25.33163,0 31.72783,-0.8722 60.57413,-8.2604 44.9252,-11.5063 81.9143,-18.8928 106.612,-21.2896 15.3034,-1.4852 24.1615,0.05 37.4074,6.4836 23.8217,11.5699 28.2555,25.6673 11.8361,37.6333 -7.1244,5.192 -12.4918,7.7401 -40.6472,19.2963 -82.424,33.8304 -109.8366,49.2855 -155.1706,87.4846 -36.38613,30.6595 -50.26653,45.791596 -50.26653,54.799096 0,7.1365 4.8467,10.3165 18.0304,11.8298 26.59583,3.053 64.09853,-9.8311 103.26493,-35.476596 5.7096,-3.7385 27.2502,-18.4142 47.8679,-32.6126 49.351,-33.9857 62.8938,-41.605 79.3172,-44.6246 8.5335,-1.569 18.3282,0.7089 26.6051,6.1872 8.0122,5.3031 11.5637,11.0449 12.1068,19.5736 0.4686,7.3601 -1.3492,12.3809 -6.8495,18.9176 l -2.7841,3.3087 v 57.459696 57.4596 l -2.5844,1.6934 c -1.9645,1.2872 -3.275,1.4308 -5.4637,0.5986 -1.5837,-0.6021 -2.9906,-1.2298 -3.1262,-1.3949 -0.136,-0.1651 -0.5047,-24.0416 -0.8196,-53.0587 l -0.5727,-52.758496 -8.742,6.4168 c -68.6563,50.394696 -159.6005,98.177296 -223.85123,117.6125961 -23.1106,6.9908 -37.4477,9.4881 -58.0786,10.1163 -26.7388,0.8142 -44.4908,-2.6959 -64.4048,-12.7349001 -4.7709,-2.4051 -8.918,-4.1294 -9.2157,-3.8317 -0.2977,0.2976 -0.758,12.9493001 -1.0231,28.1148 -0.4381,25.0616 -0.6895,28.0174 -2.7586,32.4449 -2.9523,6.3175 -9.4583,12.7627 -15.4951,15.3503 -11.4451,4.906 -49.9403,10.467 -79.7574,11.5217 -13.5587,0.47967 -17.0508,0.27894 -20.2081,-1.1616 z m -389.6692,-145.7712 c 20.047,-8.7977 33.7711,-30.770296 43.1349,-69.059796 6.3317,-25.8903 8.1427,-42.0832 8.236,-73.64 0.072,-24.4681 -0.1953,-29.397 -1.9283,-35.5118 -8.593,-30.3193 -27.5223,-50.5491 -55.3571,-59.1603 -6.8348,-2.1146 -10.645,-2.5395 -22.9478,-2.5591 -8.1137,-0.013 -15.6127,0.3297 -16.6644,0.7616 -1.7913,0.7356 -1.9123,4.9304 -1.9123,66.2509 0,71.4106 0.2687,68.4714 -6.192,67.7244 -5.7964,-0.6702 -5.7948,-0.6507 -5.8122,-67.3216 l -0.015,-61.5057 -2.391,1.2796 c -8.1264,4.3491 -19.2888,18.2069 -32.0549,39.795 -14.5068,24.5319 -20.7708,32.0564 -28.2384,33.9203 -3.1266,0.7804 -3.1287,0.7868 -2.3923,7.4612 1.7826,16.1561 11.6814,52.8672 19.9157,73.8593 16.6582,42.4677 39.4635,69.271496 65.9231,77.481596 10.0466,3.1173 11.3433,3.2819 22.9478,2.9115 7.6933,-0.2454 11.771,-0.9412 15.7493,-2.6871 z m 533.5641,-79.733596 c 8.7853,-6.6112 34.0605,-23.7825 53.3388,-36.2371 l 10.9275,-7.0596 -23.4941,-0.6596 c -19.1554,-0.5378 -25.0914,-1.093 -32.1436,-3.0065 -4.7572,-1.2908 -8.8154,-2.181 -9.0183,-1.9781 -0.2029,0.2029 -2.077,11.6365 -4.1648,25.408 -2.0877,13.7715 -3.985,26.1455 -4.2162,27.4977 -0.2313,1.3523 -0.2732,2.4587 -0.093,2.4587 0.1803,0 4.1688,-2.8906 8.8637,-6.4235 z m -301.6245,-116.2378 c 7.8753,-12.4402 10.2618,-28.7416 5.5562,-37.9508 -4.0607,-7.9469 -6.8789,-9.3121 -19.2032,-9.3023 -5.8159,0.01 -12.6741,0.6409 -15.2405,1.414 l -4.6664,1.4056 5.7591,6.507 c 7.2541,8.1963 16.0885,22.6842 20.6801,33.9146 1.9466,4.7608 3.6822,8.6561 3.857,8.6561 0.1747,0 1.6406,-2.0899 3.2577,-4.6442 z"
             id="path4800"
             inkscape:connector-curvature="0" />
        </g>
      </g>
      <g
         id="g4777">
        <g
           id="g4761"
           transform="matrix(0.46266708,0,0,0.46266708,1860.5419,435.02327)"
           style="fill:#f2f2f2">
          <path
             style="fill:#f2f2f2;stroke-width:2.53581262"
             d="m -4664.2054,-112.20968 c -8.5692,-32.62021 -20.46,-81.91747 -34.6577,-143.68477 -8.948,-38.92911 -16.5813,-71.09227 -16.9628,-71.47371 -0.3814,-0.38143 -14.3651,10.02488 -31.0749,23.1252 -16.7098,13.10028 -31.0888,23.86752 -31.9534,23.92719 -0.8646,0.0596 -2.9055,-6.66967 -4.5353,-14.95409 -3.8236,-19.4348 -0.1821,-28.78361 16.464,-42.26698 25.0862,-20.32008 39.1892,-34.89331 41.2228,-42.59749 3.7139,-14.06978 -7.4884,-46.30939 -38.8519,-111.81329 -28.7813,-60.11073 -50.1677,-92.55716 -61.0074,-92.55716 -3.307,0 -16.6192,4.70302 -29.5827,10.45117 -89.2769,39.5862 -146.4648,55.31105 -201.5861,55.42972 -52.2389,0.11247 -81.2941,-14.58929 -89.4583,-45.26521 -6.4534,-24.24808 7.6209,-51.46387 45.9886,-88.92926 17.9817,-17.55888 25.157,-22.97567 30.4345,-22.97567 10.2735,0 11.0289,4.20279 2.501,13.91552 -13.9025,15.83403 -13.0461,43.12748 1.7176,54.74212 11.2969,8.88723 23.0635,12.52203 49.2285,15.20706 44.4894,4.5655 122.7981,-4.41955 146.8304,-16.84713 4.3079,-2.22774 26.0849,-21.35611 48.3931,-42.50749 22.3083,-21.15138 41.5443,-38.45705 42.7467,-38.45705 1.2024,0 5.9459,5.96291 10.5411,13.25093 l 8.355,13.25093 25.3186,-11.85951 c 26.1151,-12.23254 49.4586,-24.9822 112.8042,-61.61079 20.2231,-11.69369 50.4627,-27.40901 67.199,-34.92293 29.4291,-13.21241 31.3484,-14.57137 58.3634,-41.32557 19.0808,-18.89656 29.7613,-27.66391 33.7005,-27.66391 8.477,0 23.4617,8.37362 40.7882,22.79287 66.6055,55.42971 236.5451,66.68344 436.4325,28.9014 38.8335,-7.34017 106.1438,-22.10413 137.8291,-30.23163 l 7.2293,-1.8544 -1.6409,22.52749 c -0.9026,12.39012 -3.5597,37.36199 -5.9047,55.49305 -5.7035,44.09694 -5.5267,127.83354 0.3613,171.16735 2.3688,17.43372 4.8951,48.24384 5.6141,68.46694 l 1.3071,36.76929 -26.966,24.09022 c -14.8314,13.24962 -28.4769,24.43917 -30.3235,24.86569 -1.8465,0.4265 -5.6277,-1.66141 -8.4025,-4.63982 -11.027,-11.83606 -11.5443,-19.08909 -12.4907,-175.10974 l -0.9011,-148.54434 -14.4684,0.91905 c -28.0527,1.78194 -55.4692,6.37729 -95.6145,16.02612 -22.3151,5.36341 -47.9902,11.0679 -57.0558,12.67666 -9.0655,1.60875 -17.8545,3.33742 -19.5312,3.84148 -1.9848,0.59671 2.1076,11.79853 11.7297,32.10632 32.4922,68.57638 49.2009,125.13917 59.7765,202.3572 2.4334,17.76705 5.1397,69.1405 6.9261,131.47613 l 2.932,102.31431 5.8878,2.23851 c 3.2382,1.23119 26.6973,1.9755 52.1313,1.65404 48.4984,-0.61301 57.217,0.94707 63.709,11.39982 3.1613,5.08998 2.411,6.56768 -25.892,50.99587 l -19.1209,30.01464 -10.3165,-1.41143 c -15.2009,-2.0797 -129.2536,-6.81786 -210.6457,-8.75101 l -71.0027,-1.68639 0.1859,-10.3304 c 0.2546,-14.15308 12.965,-40.0918 27.556,-56.23469 l 12.0332,-13.31301 53.651,-0.005 c 61.7792,-0.005 67.705,-1.47798 76.4733,-19.01467 4.4989,-8.9977 5.053,-15.01183 4.906,-53.25206 -0.1126,-29.31821 -1.5734,-50.81536 -4.5665,-67.19904 -17.0886,-93.54326 -39.9837,-161.01812 -75.6783,-223.03428 -24.2423,-42.11879 -47.7519,-69.5067 -75.3519,-87.78236 l -11.2176,-7.4267 -56.6136,-0.84486 c -31.1376,-0.46466 -56.6137,0.0699 -56.6137,1.18802 0,1.11808 9.5994,21.46778 21.3321,45.22157 26.7004,54.05724 51.1533,112.47682 68.9215,164.65802 l 13.7304,40.3233 -6.6236,8.68409 c -13.9894,18.34105 -52.5053,56.47853 -57.039,56.47853 -3.087,0 -5.2597,-2.41592 -6.2715,-6.97348 -16.8167,-75.75335 -58.5437,-179.07909 -99.5497,-246.50816 l -5.0005,-8.22263 -13.3358,19.91033 c -36.0624,53.84126 -86.7224,114.42611 -174.4841,208.66733 l -36.4527,39.14407 1.3731,14.10799 c 0.7552,7.75941 7.7736,31.5589 15.5964,52.88777 19.1069,52.09513 29.3611,92.46798 31.1074,122.47595 l 1.4153,24.32184 -34.2987,29.56418 c -18.8643,16.26031 -34.9519,29.5642 -35.7502,29.5642 -0.7983,0 -2.5756,-4.27918 -3.9496,-9.5093 z m 79.8766,-377.88474 c 30.8108,-30.30791 61.9449,-63.09307 69.1868,-72.85595 17.7282,-23.8994 35.1169,-59.50141 39.6332,-81.14601 11.1192,-53.28882 -1.1634,-71.27057 -48.1922,-70.55358 -52.4764,0.80003 -104.504,19.12066 -174.712,61.52181 -16.3079,9.84891 -30.5119,17.90712 -31.5645,17.90712 -1.0525,0 -3.1527,1.23901 -4.6671,2.75336 -1.9806,1.9806 0.083,7.42253 7.3537,19.38983 5.5588,9.15006 12.7404,23.6014 15.959,32.11407 9.2822,24.55009 51.2738,124.63268 57.0075,135.87168 3.0784,6.03422 6.9951,10.18037 9.5899,10.15159 2.4124,-0.0269 29.5949,-24.84604 60.4057,-55.15392 z"
             id="path4763"
             inkscape:connector-curvature="0" />
        </g>
        <g
           style="fill:#f2f2f2;stroke:#666666;stroke-width:16.44257384;stroke-miterlimit:4;stroke-dasharray:none"
           transform="matrix(0.46266708,0,0,0.46266708,1860.5419,435.02327)"
           id="g4771">
          <path
             inkscape:connector-curvature="0"
             id="path4769"
             d="m -4664.2054,-112.20968 c -8.5692,-32.62021 -20.46,-81.91747 -34.6577,-143.68477 -8.948,-38.92911 -16.5813,-71.09227 -16.9628,-71.47371 -0.3814,-0.38143 -14.3651,10.02488 -31.0749,23.1252 -16.7098,13.10028 -31.0888,23.86752 -31.9534,23.92719 -0.8646,0.0596 -2.9055,-6.66967 -4.5353,-14.95409 -3.8236,-19.4348 -0.1821,-28.78361 16.464,-42.26698 25.0862,-20.32008 39.1892,-34.89331 41.2228,-42.59749 3.7139,-14.06978 -7.4884,-46.30939 -38.8519,-111.81329 -28.7813,-60.11073 -50.1677,-92.55716 -61.0074,-92.55716 -3.307,0 -16.6192,4.70302 -29.5827,10.45117 -89.2769,39.5862 -146.4648,55.31105 -201.5861,55.42972 -52.2389,0.11247 -81.2941,-14.58929 -89.4583,-45.26521 -6.4534,-24.24808 7.6209,-51.46387 45.9886,-88.92926 17.9817,-17.55888 25.157,-22.97567 30.4345,-22.97567 10.2735,0 11.0289,4.20279 2.501,13.91552 -13.9025,15.83403 -13.0461,43.12748 1.7176,54.74212 11.2969,8.88723 23.0635,12.52203 49.2285,15.20706 44.4894,4.5655 122.7981,-4.41955 146.8304,-16.84713 4.3079,-2.22774 26.0849,-21.35611 48.3931,-42.50749 22.3083,-21.15138 41.5443,-38.45705 42.7467,-38.45705 1.2024,0 5.9459,5.96291 10.5411,13.25093 l 8.355,13.25093 25.3186,-11.85951 c 26.1151,-12.23254 49.4586,-24.9822 112.8042,-61.61079 20.2231,-11.69369 50.4627,-27.40901 67.199,-34.92293 29.4291,-13.21241 31.3484,-14.57137 58.3634,-41.32557 19.0808,-18.89656 29.7613,-27.66391 33.7005,-27.66391 8.477,0 23.4617,8.37362 40.7882,22.79287 66.6055,55.42971 236.5451,66.68344 436.4325,28.9014 38.8335,-7.34017 106.1438,-22.10413 137.8291,-30.23163 l 7.2293,-1.8544 -1.6409,22.52749 c -0.9026,12.39012 -3.5597,37.36199 -5.9047,55.49305 -5.7035,44.09694 -5.5267,127.83354 0.3613,171.16735 2.3688,17.43372 4.8951,48.24384 5.6141,68.46694 l 1.3071,36.76929 -26.966,24.09022 c -14.8314,13.24962 -28.4769,24.43917 -30.3235,24.86569 -1.8465,0.4265 -5.6277,-1.66141 -8.4025,-4.63982 -11.027,-11.83606 -11.5443,-19.08909 -12.4907,-175.10974 l -0.9011,-148.54434 -14.4684,0.91905 c -28.0527,1.78194 -55.4692,6.37729 -95.6145,16.02612 -22.3151,5.36341 -47.9902,11.0679 -57.0558,12.67666 -9.0655,1.60875 -17.8545,3.33742 -19.5312,3.84148 -1.9848,0.59671 2.1076,11.79853 11.7297,32.10632 32.4922,68.57638 49.2009,125.13917 59.7765,202.3572 2.4334,17.76705 5.1397,69.1405 6.9261,131.47613 l 2.932,102.31431 5.8878,2.23851 c 3.2382,1.23119 26.6973,1.9755 52.1313,1.65404 48.4984,-0.61301 57.217,0.94707 63.709,11.39982 3.1613,5.08998 2.411,6.56768 -25.892,50.99587 l -19.1209,30.01464 -10.3165,-1.41143 c -15.2009,-2.0797 -129.2536,-6.81786 -210.6457,-8.75101 l -71.0027,-1.68639 0.1859,-10.3304 c 0.2546,-14.15308 12.965,-40.0918 27.556,-56.23469 l 12.0332,-13.31301 53.651,-0.005 c 61.7792,-0.005 67.705,-1.47798 76.4733,-19.01467 4.4989,-8.9977 5.053,-15.01183 4.906,-53.25206 -0.1126,-29.31821 -1.5734,-50.81536 -4.5665,-67.19904 -17.0886,-93.54326 -39.9837,-161.01812 -75.6783,-223.03428 -24.2423,-42.11879 -47.7519,-69.5067 -75.3519,-87.78236 l -11.2176,-7.4267 -56.6136,-0.84486 c -31.1376,-0.46466 -56.6137,0.0699 -56.6137,1.18802 0,1.11808 9.5994,21.46778 21.3321,45.22157 26.7004,54.05724 51.1533,112.47682 68.9215,164.65802 l 13.7304,40.3233 -6.6236,8.68409 c -13.9894,18.34105 -52.5053,56.47853 -57.039,56.47853 -3.087,0 -5.2597,-2.41592 -6.2715,-6.97348 -16.8167,-75.75335 -58.5437,-179.07909 -99.5497,-246.50816 l -5.0005,-8.22263 -13.3358,19.91033 c -36.0624,53.84126 -86.7224,114.42611 -174.4841,208.66733 l -36.4527,39.14407 1.3731,14.10799 c 0.7552,7.75941 7.7736,31.5589 15.5964,52.88777 19.1069,52.09513 29.3611,92.46798 31.1074,122.47595 l 1.4153,24.32184 -34.2987,29.56418 c -18.8643,16.26031 -34.9519,29.5642 -35.7502,29.5642 -0.7983,0 -2.5756,-4.27918 -3.9496,-9.5093 z m 79.8766,-377.88474 c 30.8108,-30.30791 61.9449,-63.09307 69.1868,-72.85595 17.7282,-23.8994 35.1169,-59.50141 39.6332,-81.14601 11.1192,-53.28882 -1.1634,-71.27057 -48.1922,-70.55358 -52.4764,0.80003 -104.504,19.12066 -174.712,61.52181 -16.3079,9.84891 -30.5119,17.90712 -31.5645,17.90712 -1.0525,0 -3.1527,1.23901 -4.6671,2.75336 -1.9806,1.9806 0.083,7.42253 7.3537,19.38983 5.5588,9.15006 12.7404,23.6014 15.959,32.11407 9.2822,24.55009 51.2738,124.63268 57.0075,135.87168 3.0784,6.03422 6.9951,10.18037 9.5899,10.15159 2.4124,-0.0269 29.5949,-24.84604 60.4057,-55.15392 z"
             style="fill:#f9f9f9;stroke-width:16.44257384;stroke:#666666;stroke-miterlimit:4;stroke-dasharray:none" />
        </g>
      </g>
    </g>
  </g>
</svg>
